{"failedCount":1,"prefixedPath":"src\/test\/java\/tests\/PrintAPI.feature","packageQualifiedName":"src.test.java.tests.PrintAPI","loopIndex":-1,"relativePath":"src\/test\/java\/tests\/PrintAPI.feature","scenarioResults":[{"sectionIndex":0,"stepResults":[{"result":{"nanos":56410900,"millis":56.4109,"status":"passed"},"step":{"endLine":8,"line":4,"prefix":"*","docString":"[{\"page\":2,\"per_page\":6,\"total\":12,\"total_pages\":2,\"data\":[{\"id\":7,\"email\":\"michael.lawson@reqres.in\",\"first_name\":\"Michael\",\"last_name\":\"Lawson\",\"avatar\":\"https:\/\/reqres.in\/img\/faces\/7-image.jpg\"},{\"id\":8,\"email\":\"lindsay.ferguson@reqres.in\",\"first_name\":\"Lindsay\",\"last_name\":\"Ferguson\",\"avatar\":\"https:\/\/reqres.in\/img\/faces\/8-image.jpg\"},{\"id\":9,\"email\":\"tobias.funke@reqres.in\",\"first_name\":\"Tobias\",\"last_name\":\"Funke\",\"avatar\":\"https:\/\/reqres.in\/img\/faces\/9-image.jpg\"},{\"id\":10,\"email\":\"byron.fields@reqres.in\",\"first_name\":\"Byron\",\"last_name\":\"Fields\",\"avatar\":\"https:\/\/reqres.in\/img\/faces\/10-image.jpg\"},{\"id\":11,\"email\":\"george.edwards@reqres.in\",\"first_name\":\"George\",\"last_name\":\"Edwards\",\"avatar\":\"https:\/\/reqres.in\/img\/faces\/11-image.jpg\"},{\"id\":12,\"email\":\"rachel.howell@reqres.in\",\"first_name\":\"Rachel\",\"last_name\":\"Howell\",\"avatar\":\"https:\/\/reqres.in\/img\/faces\/12-image.jpg\"}],\"support\":{\"url\":\"https:\/\/reqres.in\/#support-heading\",\"text\":\"To keep ReqRes free, contributions towards server costs are appreciated!\"}}]","index":0,"text":"def jsonObject ="}},{"result":{"nanos":159336000,"millis":159.336,"status":"passed"},"step":{"line":9,"prefix":"*","index":1,"text":"print jsonObject"},"stepLog":"09:01:51.745 [print] [\n  {\n    \"page\": 2,\n    \"per_page\": 6,\n    \"total\": 12,\n    \"total_pages\": 2,\n    \"data\": [\n      {\n        \"id\": 7,\n        \"email\": \"michael.lawson@reqres.in\",\n        \"first_name\": \"Michael\",\n        \"last_name\": \"Lawson\",\n        \"avatar\": \"https:\/\/reqres.in\/img\/faces\/7-image.jpg\"\n      },\n      {\n        \"id\": 8,\n        \"email\": \"lindsay.ferguson@reqres.in\",\n        \"first_name\": \"Lindsay\",\n        \"last_name\": \"Ferguson\",\n        \"avatar\": \"https:\/\/reqres.in\/img\/faces\/8-image.jpg\"\n      },\n      {\n        \"id\": 9,\n        \"email\": \"tobias.funke@reqres.in\",\n        \"first_name\": \"Tobias\",\n        \"last_name\": \"Funke\",\n        \"avatar\": \"https:\/\/reqres.in\/img\/faces\/9-image.jpg\"\n      },\n      {\n        \"id\": 10,\n        \"email\": \"byron.fields@reqres.in\",\n        \"first_name\": \"Byron\",\n        \"last_name\": \"Fields\",\n        \"avatar\": \"https:\/\/reqres.in\/img\/faces\/10-image.jpg\"\n      },\n      {\n        \"id\": 11,\n        \"email\": \"george.edwards@reqres.in\",\n        \"first_name\": \"George\",\n        \"last_name\": \"Edwards\",\n        \"avatar\": \"https:\/\/reqres.in\/img\/faces\/11-image.jpg\"\n      },\n      {\n        \"id\": 12,\n        \"email\": \"rachel.howell@reqres.in\",\n        \"first_name\": \"Rachel\",\n        \"last_name\": \"Howell\",\n        \"avatar\": \"https:\/\/reqres.in\/img\/faces\/12-image.jpg\"\n      }\n    ],\n    \"support\": {\n      \"url\": \"https:\/\/reqres.in\/#support-heading\",\n      \"text\": \"To keep ReqRes free, contributions towards server costs are appreciated!\"\n    }\n  }\n]\n \n"},{"result":{"nanos":20931700,"errorMessage":"js failed:\n>>>>\n01: karate.log('[print]',jsonObject[1])\n<<<<\norg.graalvm.polyglot.PolyglotException: Index 1 out of bounds for length 1\n- java.base\/jdk.internal.util.Preconditions.outOfBounds(Preconditions.java:100)\n- java.base\/jdk.internal.util.Preconditions.outOfBoundsCheckIndex(Preconditions.java:106)\n- java.base\/jdk.internal.util.Preconditions.checkIndex(Preconditions.java:302)\n- java.base\/java.util.Objects.checkIndex(Objects.java:359)\n- java.base\/java.util.ArrayList.get(ArrayList.java:427)\n- com.intuit.karate.graal.JsList.get(JsList.java:60)\n- com.oracle.truffle.host.GuestToHostCodeCache$6.boundaryGet(GuestToHostCodeCache.java:170)\n\nsrc\/test\/java\/tests\/PrintAPI.feature:10","millis":20.9317,"status":"failed"},"step":{"line":10,"prefix":"*","index":2,"text":"print jsonObject[1]"},"stepLog":"09:01:51.768 src\/test\/java\/tests\/PrintAPI.feature:10\n* print jsonObject[1]\njs failed:\n>>>>\n01: karate.log('[print]',jsonObject[1])\n<<<<\norg.graalvm.polyglot.PolyglotException: Index 1 out of bounds for length 1\n- java.base\/jdk.internal.util.Preconditions.outOfBounds(Preconditions.java:100)\n- java.base\/jdk.internal.util.Preconditions.outOfBoundsCheckIndex(Preconditions.java:106)\n- java.base\/jdk.internal.util.Preconditions.checkIndex(Preconditions.java:302)\n- java.base\/java.util.Objects.checkIndex(Objects.java:359)\n- java.base\/java.util.ArrayList.get(ArrayList.java:427)\n- com.intuit.karate.graal.JsList.get(JsList.java:60)\n- com.oracle.truffle.host.GuestToHostCodeCache$6.boundaryGet(GuestToHostCodeCache.java:170)\n\nsrc\/test\/java\/tests\/PrintAPI.feature:10\n"}],"line":3,"description":"","durationMillis":236.6786,"failed":true,"error":"js failed:\n>>>>\n01: karate.log('[print]',jsonObject[1])\n<<<<\norg.graalvm.polyglot.PolyglotException: Index 1 out of bounds for length 1\n- java.base\/jdk.internal.util.Preconditions.outOfBounds(Preconditions.java:100)\n- java.base\/jdk.internal.util.Preconditions.outOfBoundsCheckIndex(Preconditions.java:106)\n- java.base\/jdk.internal.util.Preconditions.checkIndex(Preconditions.java:302)\n- java.base\/java.util.Objects.checkIndex(Objects.java:359)\n- java.base\/java.util.ArrayList.get(ArrayList.java:427)\n- com.intuit.karate.graal.JsList.get(JsList.java:60)\n- com.oracle.truffle.host.GuestToHostCodeCache$6.boundaryGet(GuestToHostCodeCache.java:170)\n\nsrc\/test\/java\/tests\/PrintAPI.feature:10","executorName":"main","name":"Print JSON API","startTime":1654693311520,"refId":"[1:3]","endTime":1654693311768,"exampleIndex":-1}],"callDepth":0,"name":"Sample test 2- print json format","description":"","resultDate":"2022-06-08 09:01:51 AM","durationMillis":236.6786,"passedCount":0}