{"failedCount":1,"prefixedPath":"src\/test\/java\/tests\/FetchURL.feature","packageQualifiedName":"src.test.java.tests.FetchURL","loopIndex":-1,"relativePath":"src\/test\/java\/tests\/FetchURL.feature","scenarioResults":[{"sectionIndex":0,"stepResults":[{"result":{"nanos":86487900,"millis":86.4879,"status":"passed"},"step":{"line":4,"prefix":"Given","index":0,"text":"url 'https:\/\/reqres.in\/api\/users\/2'"}},{"result":{"nanos":644368500,"millis":644.3685,"status":"passed"},"step":{"line":5,"prefix":"When","index":1,"text":"method GET"},"stepLog":"09:45:04.535 request:\n1 > GET https:\/\/reqres.in\/api\/users\/2\n1 > Host: reqres.in\n1 > Connection: Keep-Alive\n1 > User-Agent: Apache-HttpClient\/4.5.12 (Java\/18.0.1.1)\n1 > Accept-Encoding: gzip,deflate\n\n\n09:45:04.934 response time in milliseconds: 397\n1 < 200\n1 < Date: Wed, 08 Jun 2022 13:45:02 GMT\n1 < Content-Type: application\/json; charset=utf-8\n1 < Transfer-Encoding: chunked\n1 < Connection: keep-alive\n1 < X-Powered-By: Express\n1 < Access-Control-Allow-Origin: *\n1 < Etag: W\/\"118-pbdwwFo9SKNhD3Lx5iHJyngpq00\"\n1 < Via: 1.1 vegur\n1 < Cache-Control: max-age=14400\n1 < CF-Cache-Status: HIT\n1 < Age: 130\n1 < Expect-CT: max-age=604800, report-uri=\"https:\/\/report-uri.cloudflare.com\/cdn-cgi\/beacon\/expect-ct\"\n1 < Report-To: {\"endpoints\":[{\"url\":\"https:\\\/\\\/a.nel.cloudflare.com\\\/report\\\/v3?s=kgImohGHO4EvPLiN9FOzlZR7BtBvOnx%2BxKE%2F9TJL4%2FuQnI%2B2TMTDcV22l00WTmSbdiy2Qnz9TU4KY9ZDcwHF7x2BnlaRSEbF9xflj0l2nvZ8cjfoLRIJSXjITmk%3D\"}],\"group\":\"cf-nel\",\"max_age\":604800}\n1 < NEL: {\"success_fraction\":0,\"report_to\":\"cf-nel\",\"max_age\":604800}\n1 < Vary: Accept-Encoding\n1 < Server: cloudflare\n1 < CF-RAY: 718210cbfd742958-ORD\n1 < alt-svc: h3=\":443\"; ma=86400, h3-29=\":443\"; ma=86400\n{\"data\":{\"id\":2,\"email\":\"janet.weaver@reqres.in\",\"first_name\":\"Janet\",\"last_name\":\"Weaver\",\"avatar\":\"https:\/\/reqres.in\/img\/faces\/2-image.jpg\"},\"support\":{\"url\":\"https:\/\/reqres.in\/#support-heading\",\"text\":\"To keep ReqRes free, contributions towards server costs are appreciated!\"}}\n\n"},{"result":{"nanos":2593700,"millis":2.5937,"status":"passed"},"step":{"line":6,"prefix":"Then","index":2,"text":"status 200"}}],"executorName":"main","line":3,"name":"Fetch and print the api","description":"","durationMillis":733.4501,"startTime":1654695904213,"failed":false,"refId":"[1:3]","endTime":1654695904960,"exampleIndex":-1},{"sectionIndex":1,"stepResults":[{"result":{"nanos":18124100,"millis":18.1241,"status":"passed"},"step":{"endLine":13,"line":9,"prefix":"*","docString":"{\"data\":{\"id\":2,\"email\":\"janet.weaver@reqres.in\",\"first_name\":\"Janet\",\"last_name\":\"Weaver\",\"avatar\":\"https:\/\/reqres.in\/img\/faces\/2-image.jpg\"},\"support\":{\"url\":\"https:\/\/reqres.in\/#support-heading\",\"text\":\"To keep ReqRes free, contributions towards server costs are appreciated!\"}}","index":0,"text":"def jsonObject ="}},{"result":{"nanos":56736300,"millis":56.7363,"status":"passed"},"step":{"line":14,"prefix":"*","index":1,"text":"print jsonObject"},"stepLog":"09:45:05.039 [print] {\n  \"data\": {\n    \"id\": 2,\n    \"email\": \"janet.weaver@reqres.in\",\n    \"first_name\": \"Janet\",\n    \"last_name\": \"Weaver\",\n    \"avatar\": \"https:\/\/reqres.in\/img\/faces\/2-image.jpg\"\n  },\n  \"support\": {\n    \"url\": \"https:\/\/reqres.in\/#support-heading\",\n    \"text\": \"To keep ReqRes free, contributions towards server costs are appreciated!\"\n  }\n}\n \n"},{"result":{"nanos":8236100,"millis":8.2361,"status":"passed"},"step":{"line":15,"prefix":"*","index":2,"text":"print jsonObject.data.email + \"\" + jsonObject.support.url"},"stepLog":"09:45:05.049 [print] janet.weaver@reqres.inhttps:\/\/reqres.in\/#support-heading \n"},{"result":{"nanos":1579600,"millis":1.5796,"status":"passed"},"step":{"line":16,"prefix":"*","index":3,"text":"print 'The email is ' + jsonObject.data.email + ' and I have originated from ' + jsonObject.support.url"},"stepLog":"09:45:05.051 [print] The email is janet.weaver@reqres.in and I have originated from https:\/\/reqres.in\/#support-heading \n"}],"executorName":"main","line":8,"name":"Print the fetched API","description":"","durationMillis":84.6761,"startTime":1654695904966,"failed":false,"refId":"[2:8]","endTime":1654695905051,"exampleIndex":-1},{"sectionIndex":2,"stepResults":[{"result":{"nanos":468000,"millis":0.468,"status":"passed"},"step":{"line":19,"prefix":"Given","index":0,"text":"url 'https:\/\/reqres.in\/api\/users\/23'"}},{"result":{"nanos":187647200,"millis":187.6472,"status":"passed"},"step":{"line":20,"prefix":"When","index":1,"text":"method GET"},"stepLog":"09:45:05.055 request:\n1 > GET https:\/\/reqres.in\/api\/users\/23\n1 > Host: reqres.in\n1 > Connection: Keep-Alive\n1 > User-Agent: Apache-HttpClient\/4.5.12 (Java\/18.0.1.1)\n1 > Accept-Encoding: gzip,deflate\n\n\n09:45:05.242 response time in milliseconds: 186\n1 < 404\n1 < Date: Wed, 08 Jun 2022 13:45:02 GMT\n1 < Content-Type: application\/json; charset=utf-8\n1 < Content-Length: 2\n1 < Connection: keep-alive\n1 < X-Powered-By: Express\n1 < Access-Control-Allow-Origin: *\n1 < Etag: W\/\"2-vyGp6PvFo4RvsFtPoIWeCReyIC8\"\n1 < Via: 1.1 vegur\n1 < Cache-Control: max-age=14400\n1 < CF-Cache-Status: HIT\n1 < Age: 129\n1 < Expect-CT: max-age=604800, report-uri=\"https:\/\/report-uri.cloudflare.com\/cdn-cgi\/beacon\/expect-ct\"\n1 < Report-To: {\"endpoints\":[{\"url\":\"https:\\\/\\\/a.nel.cloudflare.com\\\/report\\\/v3?s=vHvahipxG1YLwa9Dgikn0vPsO9hzxoyZcMhnYu%2Fv35wPVku7Q5gS3NgcwvfZ7upKCh1Ff6x1vj3VPN5QfcNO3TcNiF4zyu%2FLtLX4YzJVUdtOPhRJjpHaKf31Gug%3D\"}],\"group\":\"cf-nel\",\"max_age\":604800}\n1 < NEL: {\"success_fraction\":0,\"report_to\":\"cf-nel\",\"max_age\":604800}\n1 < Vary: Accept-Encoding\n1 < Server: cloudflare\n1 < CF-RAY: 718210cdde6c86e7-ORD\n1 < alt-svc: h3=\":443\"; ma=86400, h3-29=\":443\"; ma=86400\n{}\n\n"},{"result":{"nanos":20700,"millis":0.0207,"status":"passed"},"step":{"line":21,"prefix":"Then","index":2,"text":"status 404"}}],"executorName":"main","line":18,"name":"negative test case","description":"","durationMillis":188.1359,"startTime":1654695905054,"failed":false,"refId":"[3:18]","endTime":1654695905243,"exampleIndex":-1},{"sectionIndex":3,"stepResults":[{"result":{"nanos":398500,"millis":0.3985,"status":"passed"},"step":{"line":24,"prefix":"Given","index":0,"text":"url 'https:\/\/reqres.in\/api\/users\/23'"}},{"result":{"nanos":140699400,"millis":140.6994,"status":"passed"},"step":{"line":25,"prefix":"When","index":1,"text":"method GET"},"stepLog":"09:45:05.248 request:\n1 > GET https:\/\/reqres.in\/api\/users\/23\n1 > Host: reqres.in\n1 > Connection: Keep-Alive\n1 > User-Agent: Apache-HttpClient\/4.5.12 (Java\/18.0.1.1)\n1 > Accept-Encoding: gzip,deflate\n\n\n09:45:05.388 response time in milliseconds: 139\n1 < 404\n1 < Date: Wed, 08 Jun 2022 13:45:02 GMT\n1 < Content-Type: application\/json; charset=utf-8\n1 < Content-Length: 2\n1 < Connection: keep-alive\n1 < X-Powered-By: Express\n1 < Access-Control-Allow-Origin: *\n1 < Etag: W\/\"2-vyGp6PvFo4RvsFtPoIWeCReyIC8\"\n1 < Via: 1.1 vegur\n1 < Cache-Control: max-age=14400\n1 < CF-Cache-Status: HIT\n1 < Age: 129\n1 < Expect-CT: max-age=604800, report-uri=\"https:\/\/report-uri.cloudflare.com\/cdn-cgi\/beacon\/expect-ct\"\n1 < Report-To: {\"endpoints\":[{\"url\":\"https:\\\/\\\/a.nel.cloudflare.com\\\/report\\\/v3?s=y6pbV0ddvkVUL25AeyKh1JHhGXoVNBTLtOCIn%2BeTaKvFi%2FBzZQizUX%2BP8b5%2F%2BpwsiUXAnNTgLz9aTwKFKaO3sOtH6ZxNs4V%2FBOQ6nrDcLj7o7CD0l8TAoZt7uuI%3D\"}],\"group\":\"cf-nel\",\"max_age\":604800}\n1 < NEL: {\"success_fraction\":0,\"report_to\":\"cf-nel\",\"max_age\":604800}\n1 < Vary: Accept-Encoding\n1 < Server: cloudflare\n1 < CF-RAY: 718210ced82c86e1-ORD\n1 < alt-svc: h3=\":443\"; ma=86400, h3-29=\":443\"; ma=86400\n{}\n\n"},{"result":{"nanos":108400,"errorMessage":"status code was: 404, expected: 200, response time in milliseconds: 139, url: https:\/\/reqres.in\/api\/users\/23, response: \n{}\nsrc\/test\/java\/tests\/FetchURL.feature:26","millis":0.1084,"status":"failed"},"step":{"line":26,"prefix":"Then","index":2,"text":"status 200"},"stepLog":"09:45:05.388 src\/test\/java\/tests\/FetchURL.feature:26\nThen status 200\nstatus code was: 404, expected: 200, response time in milliseconds: 139, url: https:\/\/reqres.in\/api\/users\/23, response: \n{}\nsrc\/test\/java\/tests\/FetchURL.feature:26\n"}],"line":23,"description":"","durationMillis":141.2063,"failed":true,"error":"status code was: 404, expected: 200, response time in milliseconds: 139, url: https:\/\/reqres.in\/api\/users\/23, response: \n{}\nsrc\/test\/java\/tests\/FetchURL.feature:26","executorName":"main","name":"negative test case :part 2","startTime":1654695905246,"refId":"[4:23]","endTime":1654695905389,"exampleIndex":-1},{"sectionIndex":4,"stepResults":[{"result":{"nanos":680300,"millis":0.6803,"status":"passed"},"step":{"endLine":32,"line":29,"prefix":"*","docString":"{\"page\":1,\"per_page\":6,\"total\":12,\"total_pages\":2,\"data\":[{\"id\":1,\"name\":\"cerulean\",\"year\":2000,\"color\":\"#98B2D1\",\"pantone_value\":\"15-4020\"},{\"id\":2,\"name\":\"fuchsia rose\",\"year\":2001,\"color\":\"#C74375\",\"pantone_value\":\"17-2031\"},{\"id\":3,\"name\":\"true red\",\"year\":2002,\"color\":\"#BF1932\",\"pantone_value\":\"19-1664\"},{\"id\":4,\"name\":\"aqua sky\",\"year\":2003,\"color\":\"#7BC4C4\",\"pantone_value\":\"14-4811\"},{\"id\":5,\"name\":\"tigerlily\",\"year\":2004,\"color\":\"#E2583E\",\"pantone_value\":\"17-1456\"},{\"id\":6,\"name\":\"blue turquoise\",\"year\":2005,\"color\":\"#53B0AE\",\"pantone_value\":\"15-5217\"}],\"support\":{\"url\":\"https:\/\/reqres.in\/#support-heading\",\"text\":\"To keep ReqRes free, contributions towards server costs are appreciated!\"}}","index":0,"text":"def sec_json ="}},{"result":{"nanos":1429900,"millis":1.4299,"status":"passed"},"step":{"line":34,"prefix":"*","index":1,"text":"print sec_json"},"stepLog":"09:45:05.394 [print] {\n  \"page\": 1,\n  \"per_page\": 6,\n  \"total\": 12,\n  \"total_pages\": 2,\n  \"data\": [\n    {\n      \"id\": 1,\n      \"name\": \"cerulean\",\n      \"year\": 2000,\n      \"color\": \"#98B2D1\",\n      \"pantone_value\": \"15-4020\"\n    },\n    {\n      \"id\": 2,\n      \"name\": \"fuchsia rose\",\n      \"year\": 2001,\n      \"color\": \"#C74375\",\n      \"pantone_value\": \"17-2031\"\n    },\n    {\n      \"id\": 3,\n      \"name\": \"true red\",\n      \"year\": 2002,\n      \"color\": \"#BF1932\",\n      \"pantone_value\": \"19-1664\"\n    },\n    {\n      \"id\": 4,\n      \"name\": \"aqua sky\",\n      \"year\": 2003,\n      \"color\": \"#7BC4C4\",\n      \"pantone_value\": \"14-4811\"\n    },\n    {\n      \"id\": 5,\n      \"name\": \"tigerlily\",\n      \"year\": 2004,\n      \"color\": \"#E2583E\",\n      \"pantone_value\": \"17-1456\"\n    },\n    {\n      \"id\": 6,\n      \"name\": \"blue turquoise\",\n      \"year\": 2005,\n      \"color\": \"#53B0AE\",\n      \"pantone_value\": \"15-5217\"\n    }\n  ],\n  \"support\": {\n    \"url\": \"https:\/\/reqres.in\/#support-heading\",\n    \"text\": \"To keep ReqRes free, contributions towards server costs are appreciated!\"\n  }\n}\n \n"},{"result":{"nanos":1251800,"millis":1.2518,"status":"passed"},"step":{"line":35,"prefix":"*","index":2,"text":"print sec_json.page"},"stepLog":"09:45:05.396 [print] 1 \n"},{"result":{"nanos":5464000,"millis":5.464,"status":"passed"},"step":{"line":36,"prefix":"*","index":3,"text":"print sec_json. data. color"},"stepLog":"09:45:05.401 [print] null \n"},{"result":{"nanos":10731500,"millis":10.7315,"status":"passed"},"step":{"line":37,"prefix":"*","index":4,"text":"print sec_json.data[2]"},"stepLog":"09:45:05.412 [print] {\n  \"id\": 3,\n  \"name\": \"true red\",\n  \"year\": 2002,\n  \"color\": \"#BF1932\",\n  \"pantone_value\": \"19-1664\"\n}\n \n"}],"executorName":"main","line":28,"name":"Go into the API details","description":"","durationMillis":19.5575,"startTime":1654695905392,"failed":false,"refId":"[5:28]","endTime":1654695905412,"exampleIndex":-1}],"callDepth":0,"name":"Fetch API from URL","description":"","resultDate":"2022-06-08 09:45:05 AM","durationMillis":1167.0259,"passedCount":4}