{"failedCount":0,"prefixedPath":"src\/test\/java\/tests\/Sample.feature","packageQualifiedName":"src.test.java.tests.Sample","loopIndex":-1,"relativePath":"src\/test\/java\/tests\/Sample.feature","scenarioResults":[{"sectionIndex":0,"stepResults":[{"result":{"nanos":256323500,"millis":256.3235,"status":"passed"},"step":{"line":4,"prefix":"*","index":0,"text":"print 'hello world'"},"stepLog":"08:58:49.520 [print] hello world \n"},{"result":{"nanos":1207300,"millis":1.2073,"status":"passed"},"step":{"line":5,"prefix":"Given","index":1,"text":"url 'https:\/\/reqres.in\/api\/users?page=2'"}},{"result":{"nanos":1193373800,"millis":1193.3738,"status":"passed"},"step":{"line":6,"prefix":"When","index":2,"text":"method GET"},"stepLog":"08:58:49.821 request:\n1 > GET https:\/\/reqres.in\/api\/users?page=2\n1 > Host: reqres.in\n1 > Connection: Keep-Alive\n1 > User-Agent: Apache-HttpClient\/4.5.12 (Java\/18.0.1.1)\n1 > Accept-Encoding: gzip,deflate\n\n\n08:58:50.645 response time in milliseconds: 818\n1 < 200\n1 < Date: Wed, 08 Jun 2022 12:58:47 GMT\n1 < Content-Type: application\/json; charset=utf-8\n1 < Transfer-Encoding: chunked\n1 < Connection: keep-alive\n1 < X-Powered-By: Express\n1 < Access-Control-Allow-Origin: *\n1 < Etag: W\/\"406-ut0vzoCuidvyMf8arZpMpJ6ZRDw\"\n1 < Via: 1.1 vegur\n1 < Cache-Control: max-age=14400\n1 < CF-Cache-Status: HIT\n1 < Age: 2434\n1 < Expect-CT: max-age=604800, report-uri=\"https:\/\/report-uri.cloudflare.com\/cdn-cgi\/beacon\/expect-ct\"\n1 < Report-To: {\"endpoints\":[{\"url\":\"https:\\\/\\\/a.nel.cloudflare.com\\\/report\\\/v3?s=MAt2utj%2BN9Ubw6vE1ZJ53l1%2F29zIR7yQoj3x%2BIWQgFyDIwN7ES8RUFl6kaHz2oU9gJ%2FCbqUO3o12VBeMqlyoVUYf4EZp6ml%2FS3Bv%2FZlhxYAAxqSBHFEU1n8VoqA%3D\"}],\"group\":\"cf-nel\",\"max_age\":604800}\n1 < NEL: {\"success_fraction\":0,\"report_to\":\"cf-nel\",\"max_age\":604800}\n1 < Vary: Accept-Encoding\n1 < Server: cloudflare\n1 < CF-RAY: 7181cd106f73c520-ORD\n1 < alt-svc: h3=\":443\"; ma=86400, h3-29=\":443\"; ma=86400\n{\"page\":2,\"per_page\":6,\"total\":12,\"total_pages\":2,\"data\":[{\"id\":7,\"email\":\"michael.lawson@reqres.in\",\"first_name\":\"Michael\",\"last_name\":\"Lawson\",\"avatar\":\"https:\/\/reqres.in\/img\/faces\/7-image.jpg\"},{\"id\":8,\"email\":\"lindsay.ferguson@reqres.in\",\"first_name\":\"Lindsay\",\"last_name\":\"Ferguson\",\"avatar\":\"https:\/\/reqres.in\/img\/faces\/8-image.jpg\"},{\"id\":9,\"email\":\"tobias.funke@reqres.in\",\"first_name\":\"Tobias\",\"last_name\":\"Funke\",\"avatar\":\"https:\/\/reqres.in\/img\/faces\/9-image.jpg\"},{\"id\":10,\"email\":\"byron.fields@reqres.in\",\"first_name\":\"Byron\",\"last_name\":\"Fields\",\"avatar\":\"https:\/\/reqres.in\/img\/faces\/10-image.jpg\"},{\"id\":11,\"email\":\"george.edwards@reqres.in\",\"first_name\":\"George\",\"last_name\":\"Edwards\",\"avatar\":\"https:\/\/reqres.in\/img\/faces\/11-image.jpg\"},{\"id\":12,\"email\":\"rachel.howell@reqres.in\",\"first_name\":\"Rachel\",\"last_name\":\"Howell\",\"avatar\":\"https:\/\/reqres.in\/img\/faces\/12-image.jpg\"}],\"support\":{\"url\":\"https:\/\/reqres.in\/#support-heading\",\"text\":\"To keep ReqRes free, contributions towards server costs are appreciated!\"}}\n\n"},{"result":{"nanos":5296600,"millis":5.2966,"status":"passed"},"step":{"line":7,"prefix":"Then","index":3,"text":"status 200"}}],"executorName":"main","line":3,"name":"Test a sample get API","description":"","durationMillis":1456.2012,"startTime":1654693129244,"failed":false,"refId":"[1:3]","endTime":1654693130724,"exampleIndex":-1},{"sectionIndex":1,"stepResults":[{"result":{"nanos":15507000,"millis":15.507,"status":"passed"},"step":{"line":11,"prefix":"*","index":0,"text":"def balance = 200"}},{"result":{"nanos":785400,"millis":0.7854,"status":"passed"},"step":{"line":12,"prefix":"*","index":1,"text":"def tax = 20"}},{"result":{"nanos":15458200,"millis":15.4582,"status":"passed"},"step":{"line":13,"prefix":"*","index":2,"text":"print balance + tax"},"stepLog":"08:58:50.767 [print] 220 \n"}],"executorName":"main","line":9,"name":"declare and print variable","description":"","durationMillis":31.7506,"startTime":1654693130734,"failed":false,"refId":"[2:9]","endTime":1654693130767,"exampleIndex":-1}],"callDepth":0,"name":"API Test Sample","description":"","resultDate":"2022-06-08 08:58:50 AM","durationMillis":1487.9518,"passedCount":2}