{"failedCount":2,"prefixedPath":"src\/test\/java\/tests\/FetchURL.feature","packageQualifiedName":"src.test.java.tests.FetchURL","loopIndex":-1,"relativePath":"src\/test\/java\/tests\/FetchURL.feature","scenarioResults":[{"sectionIndex":0,"stepResults":[{"result":{"nanos":2243000,"millis":2.243,"status":"passed"},"step":{"line":4,"prefix":"Given","index":0,"text":"url 'https:\/\/reqres.in\/api\/users\/2'"}},{"result":{"nanos":741261000,"millis":741.261,"status":"passed"},"step":{"line":5,"prefix":"When","index":1,"text":"method GET"},"stepLog":"10:49:29.713 request:\n1 > GET https:\/\/reqres.in\/api\/users\/2\n1 > Host: reqres.in\n1 > Connection: Keep-Alive\n1 > User-Agent: Apache-HttpClient\/4.5.12 (Java\/18.0.1.1)\n1 > Accept-Encoding: gzip,deflate\n\n\n10:49:30.216 response time in milliseconds: 501\n1 < 200\n1 < Date: Wed, 08 Jun 2022 14:49:27 GMT\n1 < Content-Type: application\/json; charset=utf-8\n1 < Transfer-Encoding: chunked\n1 < Connection: keep-alive\n1 < X-Powered-By: Express\n1 < Access-Control-Allow-Origin: *\n1 < Etag: W\/\"118-pbdwwFo9SKNhD3Lx5iHJyngpq00\"\n1 < Via: 1.1 vegur\n1 < Cache-Control: max-age=14400\n1 < CF-Cache-Status: HIT\n1 < Age: 5654\n1 < Expect-CT: max-age=604800, report-uri=\"https:\/\/report-uri.cloudflare.com\/cdn-cgi\/beacon\/expect-ct\"\n1 < Report-To: {\"endpoints\":[{\"url\":\"https:\\\/\\\/a.nel.cloudflare.com\\\/report\\\/v3?s=TlOx5nvsPcyw7x6IRUujy2VoCT9RDmZS1wiUnpS2TrBEczh9OosxmET%2FY7mYG4kJE6c%2BCvptEgcgz3KmdPOx9br9L251Nv3Y0WzxxoKaRWAog4%2BLnC4fEINydac%3D\"}],\"group\":\"cf-nel\",\"max_age\":604800}\n1 < NEL: {\"success_fraction\":0,\"report_to\":\"cf-nel\",\"max_age\":604800}\n1 < Vary: Accept-Encoding\n1 < Server: cloudflare\n1 < CF-RAY: 71826f2a3b566306-ORD\n1 < alt-svc: h3=\":443\"; ma=86400, h3-29=\":443\"; ma=86400\n{\"data\":{\"id\":2,\"email\":\"janet.weaver@reqres.in\",\"first_name\":\"Janet\",\"last_name\":\"Weaver\",\"avatar\":\"https:\/\/reqres.in\/img\/faces\/2-image.jpg\"},\"support\":{\"url\":\"https:\/\/reqres.in\/#support-heading\",\"text\":\"To keep ReqRes free, contributions towards server costs are appreciated!\"}}\n\n"},{"result":{"nanos":2389700,"millis":2.3897,"status":"passed"},"step":{"line":6,"prefix":"Then","index":2,"text":"status 200"}}],"executorName":"main","line":3,"name":"Fetch and print the api","description":"","durationMillis":745.8937,"startTime":1654699769320,"failed":false,"refId":"[1:3]","endTime":1654699770239,"exampleIndex":-1},{"sectionIndex":1,"stepResults":[{"result":{"nanos":12691600,"millis":12.6916,"status":"passed"},"step":{"endLine":13,"line":9,"prefix":"*","docString":"{\"data\":{\"id\":2,\"email\":\"janet.weaver@reqres.in\",\"first_name\":\"Janet\",\"last_name\":\"Weaver\",\"avatar\":\"https:\/\/reqres.in\/img\/faces\/2-image.jpg\"},\"support\":{\"url\":\"https:\/\/reqres.in\/#support-heading\",\"text\":\"To keep ReqRes free, contributions towards server costs are appreciated!\"}}","index":0,"text":"def jsonObject ="}},{"result":{"nanos":7138100,"millis":7.1381,"status":"passed"},"step":{"line":14,"prefix":"*","index":1,"text":"print jsonObject"},"stepLog":"10:49:30.264 [print] {\n  \"data\": {\n    \"id\": 2,\n    \"email\": \"janet.weaver@reqres.in\",\n    \"first_name\": \"Janet\",\n    \"last_name\": \"Weaver\",\n    \"avatar\": \"https:\/\/reqres.in\/img\/faces\/2-image.jpg\"\n  },\n  \"support\": {\n    \"url\": \"https:\/\/reqres.in\/#support-heading\",\n    \"text\": \"To keep ReqRes free, contributions towards server costs are appreciated!\"\n  }\n}\n \n"},{"result":{"nanos":5292300,"millis":5.2923,"status":"passed"},"step":{"line":15,"prefix":"*","index":2,"text":"print jsonObject.data.email + \"\" + jsonObject.support.url"},"stepLog":"10:49:30.270 [print] janet.weaver@reqres.inhttps:\/\/reqres.in\/#support-heading \n"},{"result":{"nanos":912000,"millis":0.912,"status":"passed"},"step":{"line":16,"prefix":"*","index":3,"text":"print 'The email is ' + jsonObject.data.email + ' and I have originated from ' + jsonObject.support.url"},"stepLog":"10:49:30.271 [print] The email is janet.weaver@reqres.in and I have originated from https:\/\/reqres.in\/#support-heading \n"}],"executorName":"main","line":8,"name":"Print the fetched API","description":"","durationMillis":26.034,"startTime":1654699770244,"failed":false,"refId":"[2:8]","endTime":1654699770271,"exampleIndex":-1},{"sectionIndex":2,"stepResults":[{"result":{"nanos":383100,"millis":0.3831,"status":"passed"},"step":{"line":19,"prefix":"Given","index":0,"text":"url 'https:\/\/reqres.in\/api\/users\/23'"}},{"result":{"nanos":328259300,"millis":328.2593,"status":"passed"},"step":{"line":20,"prefix":"When","index":1,"text":"method GET"},"stepLog":"10:49:30.275 request:\n1 > GET https:\/\/reqres.in\/api\/users\/23\n1 > Host: reqres.in\n1 > Connection: Keep-Alive\n1 > User-Agent: Apache-HttpClient\/4.5.12 (Java\/18.0.1.1)\n1 > Accept-Encoding: gzip,deflate\n\n\n10:49:30.602 response time in milliseconds: 327\n1 < 404\n1 < Date: Wed, 08 Jun 2022 14:49:27 GMT\n1 < Content-Type: application\/json; charset=utf-8\n1 < Content-Length: 2\n1 < Connection: keep-alive\n1 < X-Powered-By: Express\n1 < Access-Control-Allow-Origin: *\n1 < Etag: W\/\"2-vyGp6PvFo4RvsFtPoIWeCReyIC8\"\n1 < Via: 1.1 vegur\n1 < Cache-Control: max-age=14400\n1 < CF-Cache-Status: HIT\n1 < Age: 47\n1 < Expect-CT: max-age=604800, report-uri=\"https:\/\/report-uri.cloudflare.com\/cdn-cgi\/beacon\/expect-ct\"\n1 < Report-To: {\"endpoints\":[{\"url\":\"https:\\\/\\\/a.nel.cloudflare.com\\\/report\\\/v3?s=RGfaE0yZWvfffpAjeUGH3dPUgU5fTu3gi8OEUYnXgfhGRqeZ6AtRbeiadNdbUnv06lHy1Z%2FPqoLR5WkKR%2BzqRyJGFHHJY5jfso4eDyzIafrbgnJ%2B9H2ysTB9Jio%3D\"}],\"group\":\"cf-nel\",\"max_age\":604800}\n1 < NEL: {\"success_fraction\":0,\"report_to\":\"cf-nel\",\"max_age\":604800}\n1 < Vary: Accept-Encoding\n1 < Server: cloudflare\n1 < CF-RAY: 71826f2caf53639f-ORD\n1 < alt-svc: h3=\":443\"; ma=86400, h3-29=\":443\"; ma=86400\n{}\n\n"},{"result":{"nanos":15900,"millis":0.0159,"status":"passed"},"step":{"line":21,"prefix":"Then","index":2,"text":"status 404"}}],"executorName":"main","line":18,"name":"negative test case","description":"","durationMillis":328.6583,"startTime":1654699770274,"failed":false,"refId":"[3:18]","endTime":1654699770603,"exampleIndex":-1},{"sectionIndex":3,"stepResults":[{"result":{"nanos":248700,"millis":0.2487,"status":"passed"},"step":{"line":24,"prefix":"Given","index":0,"text":"url 'https:\/\/reqres.in\/api\/users\/23'"}},{"result":{"nanos":487752400,"millis":487.7524,"status":"passed"},"step":{"line":25,"prefix":"When","index":1,"text":"method GET"},"stepLog":"10:49:30.608 request:\n1 > GET https:\/\/reqres.in\/api\/users\/23\n1 > Host: reqres.in\n1 > Connection: Keep-Alive\n1 > User-Agent: Apache-HttpClient\/4.5.12 (Java\/18.0.1.1)\n1 > Accept-Encoding: gzip,deflate\n\n\n10:49:31.094 response time in milliseconds: 486\n1 < 404\n1 < Date: Wed, 08 Jun 2022 14:49:28 GMT\n1 < Content-Type: application\/json; charset=utf-8\n1 < Content-Length: 2\n1 < Connection: keep-alive\n1 < X-Powered-By: Express\n1 < Access-Control-Allow-Origin: *\n1 < Etag: W\/\"2-vyGp6PvFo4RvsFtPoIWeCReyIC8\"\n1 < Via: 1.1 vegur\n1 < Cache-Control: max-age=14400\n1 < CF-Cache-Status: EXPIRED\n1 < Expect-CT: max-age=604800, report-uri=\"https:\/\/report-uri.cloudflare.com\/cdn-cgi\/beacon\/expect-ct\"\n1 < Report-To: {\"endpoints\":[{\"url\":\"https:\\\/\\\/a.nel.cloudflare.com\\\/report\\\/v3?s=sxkJSRJYgDgWL2qKTL1vLvR2R2vl7otLiIjgdf25pNyJBTtin6roMDp9lVH3rCcoGv2rG7K%2Bn0XhQWM9yIvsUEQpWfX%2FJF7vy9XjXhRsxvAsezTUes41RPg%2B5P8%3D\"}],\"group\":\"cf-nel\",\"max_age\":604800}\n1 < NEL: {\"success_fraction\":0,\"report_to\":\"cf-nel\",\"max_age\":604800}\n1 < Vary: Accept-Encoding\n1 < Server: cloudflare\n1 < CF-RAY: 71826f2e6f982910-ORD\n1 < alt-svc: h3=\":443\"; ma=86400, h3-29=\":443\"; ma=86400\n{}\n\n"},{"result":{"nanos":98700,"errorMessage":"status code was: 404, expected: 200, response time in milliseconds: 486, url: https:\/\/reqres.in\/api\/users\/23, response: \n{}\nsrc\/test\/java\/tests\/FetchURL.feature:26","millis":0.0987,"status":"failed"},"step":{"line":26,"prefix":"Then","index":2,"text":"status 200"},"stepLog":"10:49:31.095 src\/test\/java\/tests\/FetchURL.feature:26\nThen status 200\nstatus code was: 404, expected: 200, response time in milliseconds: 486, url: https:\/\/reqres.in\/api\/users\/23, response: \n{}\nsrc\/test\/java\/tests\/FetchURL.feature:26\n"}],"line":23,"description":"","durationMillis":488.0998,"failed":true,"error":"status code was: 404, expected: 200, response time in milliseconds: 486, url: https:\/\/reqres.in\/api\/users\/23, response: \n{}\nsrc\/test\/java\/tests\/FetchURL.feature:26","executorName":"main","name":"negative test case :part 2","startTime":1654699770606,"refId":"[4:23]","endTime":1654699771095,"exampleIndex":-1},{"sectionIndex":4,"stepResults":[{"result":{"nanos":540800,"millis":0.5408,"status":"passed"},"step":{"endLine":32,"line":29,"prefix":"*","docString":"{\"page\":1,\"per_page\":6,\"total\":12,\"total_pages\":2,\"data\":[{\"id\":1,\"name\":\"cerulean\",\"year\":2000,\"color\":\"#98B2D1\",\"pantone_value\":\"15-4020\"},{\"id\":2,\"name\":\"fuchsia rose\",\"year\":2001,\"color\":\"#C74375\",\"pantone_value\":\"17-2031\"},{\"id\":3,\"name\":\"true red\",\"year\":2002,\"color\":\"#BF1932\",\"pantone_value\":\"19-1664\"},{\"id\":4,\"name\":\"aqua sky\",\"year\":2003,\"color\":\"#7BC4C4\",\"pantone_value\":\"14-4811\"},{\"id\":5,\"name\":\"tigerlily\",\"year\":2004,\"color\":\"#E2583E\",\"pantone_value\":\"17-1456\"},{\"id\":6,\"name\":\"blue turquoise\",\"year\":2005,\"color\":\"#53B0AE\",\"pantone_value\":\"15-5217\"}],\"support\":{\"url\":\"https:\/\/reqres.in\/#support-heading\",\"text\":\"To keep ReqRes free, contributions towards server costs are appreciated!\"}}","index":0,"text":"def sec_json ="}},{"result":{"nanos":1146200,"millis":1.1462,"status":"passed"},"step":{"line":33,"prefix":"*","index":1,"text":"print sec_json"},"stepLog":"10:49:31.101 [print] {\n  \"page\": 1,\n  \"per_page\": 6,\n  \"total\": 12,\n  \"total_pages\": 2,\n  \"data\": [\n    {\n      \"id\": 1,\n      \"name\": \"cerulean\",\n      \"year\": 2000,\n      \"color\": \"#98B2D1\",\n      \"pantone_value\": \"15-4020\"\n    },\n    {\n      \"id\": 2,\n      \"name\": \"fuchsia rose\",\n      \"year\": 2001,\n      \"color\": \"#C74375\",\n      \"pantone_value\": \"17-2031\"\n    },\n    {\n      \"id\": 3,\n      \"name\": \"true red\",\n      \"year\": 2002,\n      \"color\": \"#BF1932\",\n      \"pantone_value\": \"19-1664\"\n    },\n    {\n      \"id\": 4,\n      \"name\": \"aqua sky\",\n      \"year\": 2003,\n      \"color\": \"#7BC4C4\",\n      \"pantone_value\": \"14-4811\"\n    },\n    {\n      \"id\": 5,\n      \"name\": \"tigerlily\",\n      \"year\": 2004,\n      \"color\": \"#E2583E\",\n      \"pantone_value\": \"17-1456\"\n    },\n    {\n      \"id\": 6,\n      \"name\": \"blue turquoise\",\n      \"year\": 2005,\n      \"color\": \"#53B0AE\",\n      \"pantone_value\": \"15-5217\"\n    }\n  ],\n  \"support\": {\n    \"url\": \"https:\/\/reqres.in\/#support-heading\",\n    \"text\": \"To keep ReqRes free, contributions towards server costs are appreciated!\"\n  }\n}\n \n"},{"result":{"nanos":947900,"millis":0.9479,"status":"passed"},"step":{"line":34,"prefix":"*","index":2,"text":"print sec_json.page"},"stepLog":"10:49:31.102 [print] 1 \n"},{"result":{"nanos":2766300,"millis":2.7663,"status":"passed"},"step":{"line":35,"prefix":"*","index":3,"text":"print sec_json. data[1].color"},"stepLog":"10:49:31.104 [print] #C74375 \n"},{"result":{"nanos":1127000,"millis":1.127,"status":"passed"},"step":{"line":36,"prefix":"*","index":4,"text":"print sec_json.data[2]"},"stepLog":"10:49:31.105 [print] {\n  \"id\": 3,\n  \"name\": \"true red\",\n  \"year\": 2002,\n  \"color\": \"#BF1932\",\n  \"pantone_value\": \"19-1664\"\n}\n \n"}],"executorName":"main","line":28,"name":"Go into the API details","description":"","durationMillis":6.5282,"startTime":1654699771098,"failed":false,"refId":"[5:28]","endTime":1654699771106,"exampleIndex":-1},{"sectionIndex":5,"stepResults":[{"result":{"nanos":576500,"millis":0.5765,"status":"passed"},"step":{"line":39,"prefix":"Given","index":0,"text":"url baseUrl + '\/public\/v2\/users'"}},{"result":{"nanos":488200,"millis":0.4882,"status":"passed"},"step":{"line":40,"prefix":"And","index":1,"text":"path '2241'"}},{"result":{"nanos":886590900,"millis":886.5909,"status":"passed"},"step":{"line":41,"prefix":"When","index":2,"text":"method GET"},"stepLog":"10:49:31.112 request:\n1 > GET https:\/\/gorest.co.in\/public\/v2\/users\/2241\n1 > Host: gorest.co.in\n1 > Connection: Keep-Alive\n1 > User-Agent: Apache-HttpClient\/4.5.12 (Java\/18.0.1.1)\n1 > Accept-Encoding: gzip,deflate\n\n\n10:49:31.997 response time in milliseconds: 884\n1 < 200\n1 < Server: nginx\n1 < Date: Wed, 08 Jun 2022 14:49:29 GMT\n1 < Content-Type: application\/json; charset=utf-8\n1 < Transfer-Encoding: chunked\n1 < Connection: keep-alive\n1 < Vary: Accept-Encoding\n1 < Vary: Origin\n1 < X-Frame-Options: SAMEORIGIN\n1 < X-XSS-Protection: 0\n1 < X-Content-Type-Options: nosniff\n1 < X-Download-Options: noopen\n1 < X-Permitted-Cross-Domain-Policies: none\n1 < Referrer-Policy: strict-origin-when-cross-origin\n1 < ETag: W\/\"f7c2c5a4bf4310bc2db8bb9b9861cb62\"\n1 < Cache-Control: max-age=0, private, must-revalidate\n1 < X-Request-Id: 5fa0cd02-57ba-4780-af42-36d353c814f6\n1 < X-Runtime: 0.003350\n1 < Strict-Transport-Security: max-age=63072000; includeSubDomains\n{\"id\":2241,\"name\":\"Bhagwati Mahajan\",\"email\":\"bhagwati_mahajan@stehr.net\",\"gender\":\"female\",\"status\":\"inactive\"}\n\n"},{"result":{"nanos":14900,"millis":0.0149,"status":"passed"},"step":{"line":42,"prefix":"Then","index":3,"text":"status 200"}},{"result":{"nanos":906600,"millis":0.9066,"status":"passed"},"step":{"line":43,"prefix":"*","index":4,"text":"print response"},"stepLog":"10:49:31.998 [print] {\n  \"id\": 2241,\n  \"name\": \"Bhagwati Mahajan\",\n  \"email\": \"bhagwati_mahajan@stehr.net\",\n  \"gender\": \"female\",\n  \"status\": \"inactive\"\n}\n \n"},{"result":{"nanos":1650500,"millis":1.6505,"status":"passed"},"step":{"line":44,"prefix":"*","index":5,"text":"def result = response"}},{"result":{"nanos":752400,"millis":0.7524,"status":"passed"},"step":{"line":45,"prefix":"*","index":6,"text":"print result"},"stepLog":"10:49:32.001 [print] {\n  \"id\": 2241,\n  \"name\": \"Bhagwati Mahajan\",\n  \"email\": \"bhagwati_mahajan@stehr.net\",\n  \"gender\": \"female\",\n  \"status\": \"inactive\"\n}\n \n"},{"result":{"nanos":459700,"millis":0.4597,"status":"passed"},"step":{"line":46,"prefix":"*","index":7,"text":"def actName = result.gender"}},{"result":{"nanos":512000,"millis":0.512,"status":"passed"},"step":{"line":47,"prefix":"*","index":8,"text":"print actName"},"stepLog":"10:49:32.002 [print] female \n"},{"result":{"nanos":6673800,"millis":6.6738,"status":"passed"},"step":{"line":48,"prefix":"*","index":9,"text":"match actName == 'female'"}},{"result":{"nanos":641000,"millis":0.641,"status":"passed"},"step":{"line":49,"prefix":"*","index":10,"text":"def actID = result.id"}},{"result":{"nanos":724500,"millis":0.7245,"status":"passed"},"step":{"line":50,"prefix":"*","index":11,"text":"print actID"},"stepLog":"10:49:32.010 [print] 2241 \n"},{"result":{"nanos":1290500,"errorMessage":"match failed: EQUALS\n  $ | not equal (NUMBER:NUMBER)\n  2241\n  2240\n\nsrc\/test\/java\/tests\/FetchURL.feature:51","millis":1.2905,"status":"failed"},"step":{"line":51,"prefix":"*","index":12,"text":"match actID == 2240"},"stepLog":"10:49:32.011 src\/test\/java\/tests\/FetchURL.feature:51\n* match actID == 2240\nmatch failed: EQUALS\n  $ | not equal (NUMBER:NUMBER)\n  2241\n  2240\n\nsrc\/test\/java\/tests\/FetchURL.feature:51\n"}],"line":38,"description":"","durationMillis":901.2815,"failed":true,"error":"match failed: EQUALS\n  $ | not equal (NUMBER:NUMBER)\n  2241\n  2240\n\nsrc\/test\/java\/tests\/FetchURL.feature:51","executorName":"main","name":"GET API- GoRest Feature","startTime":1654699771108,"refId":"[6:38]","endTime":1654699772011,"exampleIndex":-1},{"sectionIndex":6,"stepResults":[{"result":{"nanos":185400,"millis":0.1854,"status":"passed"},"step":{"line":54,"prefix":"Given","index":0,"text":"url baseUrl + '\/public\/v2\/users'"}},{"result":{"nanos":341900,"millis":0.3419,"status":"passed"},"step":{"line":55,"prefix":"And","index":1,"text":"path '21'"}},{"result":{"nanos":899876200,"millis":899.8762,"status":"passed"},"step":{"line":56,"prefix":"When","index":2,"text":"method GET"},"stepLog":"10:49:32.017 request:\n1 > GET https:\/\/gorest.co.in\/public\/v2\/users\/21\n1 > Host: gorest.co.in\n1 > Connection: Keep-Alive\n1 > User-Agent: Apache-HttpClient\/4.5.12 (Java\/18.0.1.1)\n1 > Accept-Encoding: gzip,deflate\n\n\n10:49:32.914 response time in milliseconds: 897\n1 < 404\n1 < Server: nginx\n1 < Date: Wed, 08 Jun 2022 14:49:30 GMT\n1 < Content-Type: application\/json; charset=utf-8\n1 < Transfer-Encoding: chunked\n1 < Connection: keep-alive\n1 < Vary: Accept-Encoding\n1 < Vary: Origin\n1 < X-Frame-Options: SAMEORIGIN\n1 < X-XSS-Protection: 0\n1 < X-Content-Type-Options: nosniff\n1 < X-Download-Options: noopen\n1 < X-Permitted-Cross-Domain-Policies: none\n1 < Referrer-Policy: strict-origin-when-cross-origin\n1 < Cache-Control: no-cache\n1 < X-Request-Id: d15a1b9f-8972-4415-82f4-1b6203763a94\n1 < X-Runtime: 0.003301\n1 < Strict-Transport-Security: max-age=63072000; includeSubDomains\n{\"message\":\"Resource not found\"}\n\n"},{"result":{"nanos":17500,"millis":0.0175,"status":"passed"},"step":{"line":57,"prefix":"Then","index":3,"text":"status 404"}},{"result":{"nanos":410500,"millis":0.4105,"status":"passed"},"step":{"line":58,"prefix":"*","index":4,"text":"print response"},"stepLog":"10:49:32.915 [print] {\n  \"message\": \"Resource not found\"\n}\n \n"}],"executorName":"main","line":53,"name":"GET API- GoRest Feature Part 2- Negative Test case","description":"","durationMillis":900.8315,"startTime":1654699772014,"failed":false,"refId":"[7:53]","endTime":1654699772915,"exampleIndex":-1}],"callDepth":0,"name":"Fetch API from URL","description":"","resultDate":"2022-06-08 10:49:32 AM","durationMillis":3397.327,"passedCount":5}