{"failedCount":2,"prefixedPath":"src\/test\/java\/tests\/FetchURL.feature","packageQualifiedName":"src.test.java.tests.FetchURL","loopIndex":-1,"relativePath":"src\/test\/java\/tests\/FetchURL.feature","scenarioResults":[{"sectionIndex":0,"stepResults":[{"result":{"nanos":70684200,"millis":70.6842,"status":"passed"},"step":{"line":4,"prefix":"Given","index":0,"text":"url 'https:\/\/reqres.in\/api\/users\/2'"}},{"result":{"nanos":781954800,"millis":781.9548,"status":"passed"},"step":{"line":5,"prefix":"When","index":1,"text":"method GET"},"stepLog":"10:33:20.329 request:\n1 > GET https:\/\/reqres.in\/api\/users\/2\n1 > Host: reqres.in\n1 > Connection: Keep-Alive\n1 > User-Agent: Apache-HttpClient\/4.5.12 (Java\/18.0.1.1)\n1 > Accept-Encoding: gzip,deflate\n\n\n10:33:20.852 response time in milliseconds: 522\n1 < 200\n1 < Date: Wed, 08 Jun 2022 14:33:18 GMT\n1 < Content-Type: application\/json; charset=utf-8\n1 < Transfer-Encoding: chunked\n1 < Connection: keep-alive\n1 < X-Powered-By: Express\n1 < Access-Control-Allow-Origin: *\n1 < Etag: W\/\"118-pbdwwFo9SKNhD3Lx5iHJyngpq00\"\n1 < Via: 1.1 vegur\n1 < Cache-Control: max-age=14400\n1 < CF-Cache-Status: HIT\n1 < Age: 3357\n1 < Expect-CT: max-age=604800, report-uri=\"https:\/\/report-uri.cloudflare.com\/cdn-cgi\/beacon\/expect-ct\"\n1 < Report-To: {\"endpoints\":[{\"url\":\"https:\\\/\\\/a.nel.cloudflare.com\\\/report\\\/v3?s=JOE%2BNOMhZGQAFUGYEXEOwYET8351dQJCDr8LzTwSy%2FG9JhB1S0AU3W8sb37F%2BXWMAyc4TckJb%2FCTwjYx5nisv2M%2BW%2Bez7oVD2basdPzgY6Y2f7ysG1Hk0D88dsM%3D\"}],\"group\":\"cf-nel\",\"max_age\":604800}\n1 < NEL: {\"success_fraction\":0,\"report_to\":\"cf-nel\",\"max_age\":604800}\n1 < Vary: Accept-Encoding\n1 < Server: cloudflare\n1 < CF-RAY: 7182577f9e202d79-ORD\n1 < alt-svc: h3=\":443\"; ma=86400, h3-29=\":443\"; ma=86400\n{\"data\":{\"id\":2,\"email\":\"janet.weaver@reqres.in\",\"first_name\":\"Janet\",\"last_name\":\"Weaver\",\"avatar\":\"https:\/\/reqres.in\/img\/faces\/2-image.jpg\"},\"support\":{\"url\":\"https:\/\/reqres.in\/#support-heading\",\"text\":\"To keep ReqRes free, contributions towards server costs are appreciated!\"}}\n\n"},{"result":{"nanos":2424800,"millis":2.4248,"status":"passed"},"step":{"line":6,"prefix":"Then","index":2,"text":"status 200"}}],"executorName":"main","line":3,"name":"Fetch and print the api","description":"","durationMillis":855.0638,"startTime":1654698800011,"failed":false,"refId":"[1:3]","endTime":1654698800878,"exampleIndex":-1},{"sectionIndex":1,"stepResults":[{"result":{"nanos":12969100,"millis":12.9691,"status":"passed"},"step":{"endLine":13,"line":9,"prefix":"*","docString":"{\"data\":{\"id\":2,\"email\":\"janet.weaver@reqres.in\",\"first_name\":\"Janet\",\"last_name\":\"Weaver\",\"avatar\":\"https:\/\/reqres.in\/img\/faces\/2-image.jpg\"},\"support\":{\"url\":\"https:\/\/reqres.in\/#support-heading\",\"text\":\"To keep ReqRes free, contributions towards server costs are appreciated!\"}}","index":0,"text":"def jsonObject ="}},{"result":{"nanos":50868400,"millis":50.8684,"status":"passed"},"step":{"line":14,"prefix":"*","index":1,"text":"print jsonObject"},"stepLog":"10:33:20.946 [print] {\n  \"data\": {\n    \"id\": 2,\n    \"email\": \"janet.weaver@reqres.in\",\n    \"first_name\": \"Janet\",\n    \"last_name\": \"Weaver\",\n    \"avatar\": \"https:\/\/reqres.in\/img\/faces\/2-image.jpg\"\n  },\n  \"support\": {\n    \"url\": \"https:\/\/reqres.in\/#support-heading\",\n    \"text\": \"To keep ReqRes free, contributions towards server costs are appreciated!\"\n  }\n}\n \n"},{"result":{"nanos":7277900,"millis":7.2779,"status":"passed"},"step":{"line":15,"prefix":"*","index":2,"text":"print jsonObject.data.email + \"\" + jsonObject.support.url"},"stepLog":"10:33:20.954 [print] janet.weaver@reqres.inhttps:\/\/reqres.in\/#support-heading \n"},{"result":{"nanos":1000200,"millis":1.0002,"status":"passed"},"step":{"line":16,"prefix":"*","index":3,"text":"print 'The email is ' + jsonObject.data.email + ' and I have originated from ' + jsonObject.support.url"},"stepLog":"10:33:20.955 [print] The email is janet.weaver@reqres.in and I have originated from https:\/\/reqres.in\/#support-heading \n"}],"executorName":"main","line":8,"name":"Print the fetched API","description":"","durationMillis":72.1156,"startTime":1654698800883,"failed":false,"refId":"[2:8]","endTime":1654698800955,"exampleIndex":-1},{"sectionIndex":2,"stepResults":[{"result":{"nanos":499100,"millis":0.4991,"status":"passed"},"step":{"line":19,"prefix":"Given","index":0,"text":"url 'https:\/\/reqres.in\/api\/users\/23'"}},{"result":{"nanos":326411800,"millis":326.4118,"status":"passed"},"step":{"line":20,"prefix":"When","index":1,"text":"method GET"},"stepLog":"10:33:20.960 request:\n1 > GET https:\/\/reqres.in\/api\/users\/23\n1 > Host: reqres.in\n1 > Connection: Keep-Alive\n1 > User-Agent: Apache-HttpClient\/4.5.12 (Java\/18.0.1.1)\n1 > Accept-Encoding: gzip,deflate\n\n\n10:33:21.284 response time in milliseconds: 324\n1 < 404\n1 < Date: Wed, 08 Jun 2022 14:33:18 GMT\n1 < Content-Type: application\/json; charset=utf-8\n1 < Content-Length: 2\n1 < Connection: keep-alive\n1 < X-Powered-By: Express\n1 < Access-Control-Allow-Origin: *\n1 < Etag: W\/\"2-vyGp6PvFo4RvsFtPoIWeCReyIC8\"\n1 < Via: 1.1 vegur\n1 < Cache-Control: max-age=14400\n1 < CF-Cache-Status: HIT\n1 < Age: 42\n1 < Expect-CT: max-age=604800, report-uri=\"https:\/\/report-uri.cloudflare.com\/cdn-cgi\/beacon\/expect-ct\"\n1 < Report-To: {\"endpoints\":[{\"url\":\"https:\\\/\\\/a.nel.cloudflare.com\\\/report\\\/v3?s=NITjpebzSaNCqxTMf8pSzKlFFLYPQPItdtUSUuY9fT6bLaO07Plpb3GsYMgF%2BLIQwrnPUIBvPJ4UFOzXcXrsrI%2BYT3WkiIKK0EdgkyvEhSQAgimZoymfKXwjDHY%3D\"}],\"group\":\"cf-nel\",\"max_age\":604800}\n1 < NEL: {\"success_fraction\":0,\"report_to\":\"cf-nel\",\"max_age\":604800}\n1 < Vary: Accept-Encoding\n1 < Server: cloudflare\n1 < CF-RAY: 718257826e7ec548-ORD\n1 < alt-svc: h3=\":443\"; ma=86400, h3-29=\":443\"; ma=86400\n{}\n\n"},{"result":{"nanos":20000,"millis":0.02,"status":"passed"},"step":{"line":21,"prefix":"Then","index":2,"text":"status 404"}}],"executorName":"main","line":18,"name":"negative test case","description":"","durationMillis":326.9309,"startTime":1654698800958,"failed":false,"refId":"[3:18]","endTime":1654698801285,"exampleIndex":-1},{"sectionIndex":3,"stepResults":[{"result":{"nanos":385300,"millis":0.3853,"status":"passed"},"step":{"line":24,"prefix":"Given","index":0,"text":"url 'https:\/\/reqres.in\/api\/users\/23'"}},{"result":{"nanos":323210300,"millis":323.2103,"status":"passed"},"step":{"line":25,"prefix":"When","index":1,"text":"method GET"},"stepLog":"10:33:21.291 request:\n1 > GET https:\/\/reqres.in\/api\/users\/23\n1 > Host: reqres.in\n1 > Connection: Keep-Alive\n1 > User-Agent: Apache-HttpClient\/4.5.12 (Java\/18.0.1.1)\n1 > Accept-Encoding: gzip,deflate\n\n\n10:33:21.612 response time in milliseconds: 321\n1 < 404\n1 < Date: Wed, 08 Jun 2022 14:33:18 GMT\n1 < Content-Type: application\/json; charset=utf-8\n1 < Content-Length: 2\n1 < Connection: keep-alive\n1 < X-Powered-By: Express\n1 < Access-Control-Allow-Origin: *\n1 < Etag: W\/\"2-vyGp6PvFo4RvsFtPoIWeCReyIC8\"\n1 < Via: 1.1 vegur\n1 < Cache-Control: max-age=14400\n1 < CF-Cache-Status: HIT\n1 < Age: 42\n1 < Expect-CT: max-age=604800, report-uri=\"https:\/\/report-uri.cloudflare.com\/cdn-cgi\/beacon\/expect-ct\"\n1 < Report-To: {\"endpoints\":[{\"url\":\"https:\\\/\\\/a.nel.cloudflare.com\\\/report\\\/v3?s=2HolIy5%2FRtIiy2e9pztg0tcFccDOnVTKET%2BZPUNewqRWwcEtnCFsbdlSPPFamCab5SGF806NSh8bpDAiN2D7AKPp7dv2l%2Fv8y2nK9uOJtj5NJhbGJnVmPfLvqL8%3D\"}],\"group\":\"cf-nel\",\"max_age\":604800}\n1 < NEL: {\"success_fraction\":0,\"report_to\":\"cf-nel\",\"max_age\":604800}\n1 < Vary: Accept-Encoding\n1 < Server: cloudflare\n1 < CF-RAY: 718257846f7a2bd4-ORD\n1 < alt-svc: h3=\":443\"; ma=86400, h3-29=\":443\"; ma=86400\n{}\n\n"},{"result":{"nanos":94700,"errorMessage":"status code was: 404, expected: 200, response time in milliseconds: 321, url: https:\/\/reqres.in\/api\/users\/23, response: \n{}\nsrc\/test\/java\/tests\/FetchURL.feature:26","millis":0.0947,"status":"failed"},"step":{"line":26,"prefix":"Then","index":2,"text":"status 200"},"stepLog":"10:33:21.613 src\/test\/java\/tests\/FetchURL.feature:26\nThen status 200\nstatus code was: 404, expected: 200, response time in milliseconds: 321, url: https:\/\/reqres.in\/api\/users\/23, response: \n{}\nsrc\/test\/java\/tests\/FetchURL.feature:26\n"}],"line":23,"description":"","durationMillis":323.6903,"failed":true,"error":"status code was: 404, expected: 200, response time in milliseconds: 321, url: https:\/\/reqres.in\/api\/users\/23, response: \n{}\nsrc\/test\/java\/tests\/FetchURL.feature:26","executorName":"main","name":"negative test case :part 2","startTime":1654698801289,"refId":"[4:23]","endTime":1654698801613,"exampleIndex":-1},{"sectionIndex":4,"stepResults":[{"result":{"nanos":550400,"millis":0.5504,"status":"passed"},"step":{"endLine":32,"line":29,"prefix":"*","docString":"{\"page\":1,\"per_page\":6,\"total\":12,\"total_pages\":2,\"data\":[{\"id\":1,\"name\":\"cerulean\",\"year\":2000,\"color\":\"#98B2D1\",\"pantone_value\":\"15-4020\"},{\"id\":2,\"name\":\"fuchsia rose\",\"year\":2001,\"color\":\"#C74375\",\"pantone_value\":\"17-2031\"},{\"id\":3,\"name\":\"true red\",\"year\":2002,\"color\":\"#BF1932\",\"pantone_value\":\"19-1664\"},{\"id\":4,\"name\":\"aqua sky\",\"year\":2003,\"color\":\"#7BC4C4\",\"pantone_value\":\"14-4811\"},{\"id\":5,\"name\":\"tigerlily\",\"year\":2004,\"color\":\"#E2583E\",\"pantone_value\":\"17-1456\"},{\"id\":6,\"name\":\"blue turquoise\",\"year\":2005,\"color\":\"#53B0AE\",\"pantone_value\":\"15-5217\"}],\"support\":{\"url\":\"https:\/\/reqres.in\/#support-heading\",\"text\":\"To keep ReqRes free, contributions towards server costs are appreciated!\"}}","index":0,"text":"def sec_json ="}},{"result":{"nanos":1244400,"millis":1.2444,"status":"passed"},"step":{"line":33,"prefix":"*","index":1,"text":"print sec_json"},"stepLog":"10:33:21.619 [print] {\n  \"page\": 1,\n  \"per_page\": 6,\n  \"total\": 12,\n  \"total_pages\": 2,\n  \"data\": [\n    {\n      \"id\": 1,\n      \"name\": \"cerulean\",\n      \"year\": 2000,\n      \"color\": \"#98B2D1\",\n      \"pantone_value\": \"15-4020\"\n    },\n    {\n      \"id\": 2,\n      \"name\": \"fuchsia rose\",\n      \"year\": 2001,\n      \"color\": \"#C74375\",\n      \"pantone_value\": \"17-2031\"\n    },\n    {\n      \"id\": 3,\n      \"name\": \"true red\",\n      \"year\": 2002,\n      \"color\": \"#BF1932\",\n      \"pantone_value\": \"19-1664\"\n    },\n    {\n      \"id\": 4,\n      \"name\": \"aqua sky\",\n      \"year\": 2003,\n      \"color\": \"#7BC4C4\",\n      \"pantone_value\": \"14-4811\"\n    },\n    {\n      \"id\": 5,\n      \"name\": \"tigerlily\",\n      \"year\": 2004,\n      \"color\": \"#E2583E\",\n      \"pantone_value\": \"17-1456\"\n    },\n    {\n      \"id\": 6,\n      \"name\": \"blue turquoise\",\n      \"year\": 2005,\n      \"color\": \"#53B0AE\",\n      \"pantone_value\": \"15-5217\"\n    }\n  ],\n  \"support\": {\n    \"url\": \"https:\/\/reqres.in\/#support-heading\",\n    \"text\": \"To keep ReqRes free, contributions towards server costs are appreciated!\"\n  }\n}\n \n"},{"result":{"nanos":953500,"millis":0.9535,"status":"passed"},"step":{"line":34,"prefix":"*","index":2,"text":"print sec_json.page"},"stepLog":"10:33:21.619 [print] 1 \n"},{"result":{"nanos":9138800,"millis":9.1388,"status":"passed"},"step":{"line":35,"prefix":"*","index":3,"text":"print sec_json. data[1].color"},"stepLog":"10:33:21.629 [print] #C74375 \n"},{"result":{"nanos":1124700,"millis":1.1247,"status":"passed"},"step":{"line":36,"prefix":"*","index":4,"text":"print sec_json.data[2]"},"stepLog":"10:33:21.630 [print] {\n  \"id\": 3,\n  \"name\": \"true red\",\n  \"year\": 2002,\n  \"color\": \"#BF1932\",\n  \"pantone_value\": \"19-1664\"\n}\n \n"}],"executorName":"main","line":28,"name":"Go into the API details","description":"","durationMillis":13.0118,"startTime":1654698801616,"failed":false,"refId":"[5:28]","endTime":1654698801630,"exampleIndex":-1},{"sectionIndex":5,"stepResults":[{"result":{"nanos":627200,"millis":0.6272,"status":"passed"},"step":{"line":39,"prefix":"Given","index":0,"text":"url 'https:\/\/gorest.co.in\/public\/v2\/users'"}},{"result":{"nanos":559900,"millis":0.5599,"status":"passed"},"step":{"line":40,"prefix":"And","index":1,"text":"path '2241'"}},{"result":{"nanos":936804100,"millis":936.8041,"status":"passed"},"step":{"line":41,"prefix":"When","index":2,"text":"method GET"},"stepLog":"10:33:21.636 request:\n1 > GET https:\/\/gorest.co.in\/public\/v2\/users\/2241\n1 > Host: gorest.co.in\n1 > Connection: Keep-Alive\n1 > User-Agent: Apache-HttpClient\/4.5.12 (Java\/18.0.1.1)\n1 > Accept-Encoding: gzip,deflate\n\n\n10:33:22.571 response time in milliseconds: 935\n1 < 200\n1 < Server: nginx\n1 < Date: Wed, 08 Jun 2022 14:33:19 GMT\n1 < Content-Type: application\/json; charset=utf-8\n1 < Transfer-Encoding: chunked\n1 < Connection: keep-alive\n1 < Vary: Accept-Encoding\n1 < Vary: Origin\n1 < X-Frame-Options: SAMEORIGIN\n1 < X-XSS-Protection: 0\n1 < X-Content-Type-Options: nosniff\n1 < X-Download-Options: noopen\n1 < X-Permitted-Cross-Domain-Policies: none\n1 < Referrer-Policy: strict-origin-when-cross-origin\n1 < ETag: W\/\"f7c2c5a4bf4310bc2db8bb9b9861cb62\"\n1 < Cache-Control: max-age=0, private, must-revalidate\n1 < X-Request-Id: c733e429-9e3a-43cd-866c-779d554a9925\n1 < X-Runtime: 0.003483\n1 < Strict-Transport-Security: max-age=63072000; includeSubDomains\n{\"id\":2241,\"name\":\"Bhagwati Mahajan\",\"email\":\"bhagwati_mahajan@stehr.net\",\"gender\":\"female\",\"status\":\"inactive\"}\n\n"},{"result":{"nanos":17700,"millis":0.0177,"status":"passed"},"step":{"line":42,"prefix":"Then","index":3,"text":"status 200"}},{"result":{"nanos":1267600,"millis":1.2676,"status":"passed"},"step":{"line":43,"prefix":"*","index":4,"text":"print response"},"stepLog":"10:33:22.572 [print] {\n  \"id\": 2241,\n  \"name\": \"Bhagwati Mahajan\",\n  \"email\": \"bhagwati_mahajan@stehr.net\",\n  \"gender\": \"female\",\n  \"status\": \"inactive\"\n}\n \n"},{"result":{"nanos":6309400,"millis":6.3094,"status":"passed"},"step":{"line":44,"prefix":"*","index":5,"text":"def result = response"}},{"result":{"nanos":1068800,"millis":1.0688,"status":"passed"},"step":{"line":45,"prefix":"*","index":6,"text":"print result"},"stepLog":"10:33:22.580 [print] {\n  \"id\": 2241,\n  \"name\": \"Bhagwati Mahajan\",\n  \"email\": \"bhagwati_mahajan@stehr.net\",\n  \"gender\": \"female\",\n  \"status\": \"inactive\"\n}\n \n"},{"result":{"nanos":658800,"millis":0.6588,"status":"passed"},"step":{"line":46,"prefix":"*","index":7,"text":"def actName = result.gender"}},{"result":{"nanos":902000,"millis":0.902,"status":"passed"},"step":{"line":47,"prefix":"*","index":8,"text":"print actName"},"stepLog":"10:33:22.581 [print] female \n"},{"result":{"nanos":10094300,"millis":10.0943,"status":"passed"},"step":{"line":48,"prefix":"*","index":9,"text":"match actName == 'female'"}},{"result":{"nanos":1004500,"millis":1.0045,"status":"passed"},"step":{"line":49,"prefix":"*","index":10,"text":"def actID = result.id"}},{"result":{"nanos":1186700,"millis":1.1867,"status":"passed"},"step":{"line":50,"prefix":"*","index":11,"text":"print actID"},"stepLog":"10:33:22.595 [print] 2241 \n"},{"result":{"nanos":2104600,"errorMessage":"match failed: EQUALS\n  $ | not equal (NUMBER:NUMBER)\n  2241\n  2240\n\nsrc\/test\/java\/tests\/FetchURL.feature:51","millis":2.1046,"status":"failed"},"step":{"line":51,"prefix":"*","index":12,"text":"match actID == 2240"},"stepLog":"10:33:22.597 src\/test\/java\/tests\/FetchURL.feature:51\n* match actID == 2240\nmatch failed: EQUALS\n  $ | not equal (NUMBER:NUMBER)\n  2241\n  2240\n\nsrc\/test\/java\/tests\/FetchURL.feature:51\n"}],"line":38,"description":"","durationMillis":962.6056,"failed":true,"error":"match failed: EQUALS\n  $ | not equal (NUMBER:NUMBER)\n  2241\n  2240\n\nsrc\/test\/java\/tests\/FetchURL.feature:51","executorName":"main","name":"GET API- GoRest Feature","startTime":1654698801633,"refId":"[6:38]","endTime":1654698802597,"exampleIndex":-1},{"sectionIndex":6,"stepResults":[{"result":{"nanos":256600,"millis":0.2566,"status":"passed"},"step":{"line":54,"prefix":"Given","index":0,"text":"url 'https:\/\/gorest.co.in\/public\/v2\/users'"}},{"result":{"nanos":415800,"millis":0.4158,"status":"passed"},"step":{"line":55,"prefix":"And","index":1,"text":"path '21'"}},{"result":{"nanos":893136900,"millis":893.1369,"status":"passed"},"step":{"line":56,"prefix":"When","index":2,"text":"method GET"},"stepLog":"10:33:22.603 request:\n1 > GET https:\/\/gorest.co.in\/public\/v2\/users\/21\n1 > Host: gorest.co.in\n1 > Connection: Keep-Alive\n1 > User-Agent: Apache-HttpClient\/4.5.12 (Java\/18.0.1.1)\n1 > Accept-Encoding: gzip,deflate\n\n\n10:33:23.494 response time in milliseconds: 891\n1 < 404\n1 < Server: nginx\n1 < Date: Wed, 08 Jun 2022 14:33:20 GMT\n1 < Content-Type: application\/json; charset=utf-8\n1 < Transfer-Encoding: chunked\n1 < Connection: keep-alive\n1 < Vary: Accept-Encoding\n1 < Vary: Origin\n1 < X-Frame-Options: SAMEORIGIN\n1 < X-XSS-Protection: 0\n1 < X-Content-Type-Options: nosniff\n1 < X-Download-Options: noopen\n1 < X-Permitted-Cross-Domain-Policies: none\n1 < Referrer-Policy: strict-origin-when-cross-origin\n1 < Cache-Control: no-cache\n1 < X-Request-Id: c052b749-61a9-4a93-a452-d80bf4b8487b\n1 < X-Runtime: 0.003777\n1 < Strict-Transport-Security: max-age=63072000; includeSubDomains\n{\"message\":\"Resource not found\"}\n\n"},{"result":{"nanos":15500,"millis":0.0155,"status":"passed"},"step":{"line":57,"prefix":"Then","index":3,"text":"status 404"}},{"result":{"nanos":528600,"millis":0.5286,"status":"passed"},"step":{"line":58,"prefix":"*","index":4,"text":"print response"},"stepLog":"10:33:23.495 [print] {\n  \"message\": \"Resource not found\"\n}\n \n"}],"executorName":"main","line":53,"name":"GET API- GoRest Feature Part 2- Negative Test case","description":"","durationMillis":894.3534,"startTime":1654698802600,"failed":false,"refId":"[7:53]","endTime":1654698803495,"exampleIndex":-1}],"callDepth":0,"name":"Fetch API from URL","description":"","resultDate":"2022-06-08 10:33:23 AM","durationMillis":3447.7714,"passedCount":5}