{"failedCount":1,"prefixedPath":"src\/test\/java\/tests\/FetchURL.feature","packageQualifiedName":"src.test.java.tests.FetchURL","loopIndex":-1,"relativePath":"src\/test\/java\/tests\/FetchURL.feature","scenarioResults":[{"sectionIndex":0,"stepResults":[{"result":{"nanos":81869000,"millis":81.869,"status":"passed"},"step":{"line":4,"prefix":"Given","index":0,"text":"url 'https:\/\/reqres.in\/api\/users\/2'"}},{"result":{"nanos":652525700,"millis":652.5257,"status":"passed"},"step":{"line":5,"prefix":"When","index":1,"text":"method GET"},"stepLog":"10:27:05.429 request:\n1 > GET https:\/\/reqres.in\/api\/users\/2\n1 > Host: reqres.in\n1 > Connection: Keep-Alive\n1 > User-Agent: Apache-HttpClient\/4.5.12 (Java\/18.0.1.1)\n1 > Accept-Encoding: gzip,deflate\n\n\n10:27:05.816 response time in milliseconds: 385\n1 < 200\n1 < Date: Wed, 08 Jun 2022 14:27:02 GMT\n1 < Content-Type: application\/json; charset=utf-8\n1 < Transfer-Encoding: chunked\n1 < Connection: keep-alive\n1 < X-Powered-By: Express\n1 < Access-Control-Allow-Origin: *\n1 < Etag: W\/\"118-pbdwwFo9SKNhD3Lx5iHJyngpq00\"\n1 < Via: 1.1 vegur\n1 < Cache-Control: max-age=14400\n1 < CF-Cache-Status: HIT\n1 < Age: 2981\n1 < Expect-CT: max-age=604800, report-uri=\"https:\/\/report-uri.cloudflare.com\/cdn-cgi\/beacon\/expect-ct\"\n1 < Report-To: {\"endpoints\":[{\"url\":\"https:\\\/\\\/a.nel.cloudflare.com\\\/report\\\/v3?s=DvhHMMXVgNdGevuaw1WI9Wz%2F7VsgOhXVjapvmznlKL5iQQPYYkWHFEAald052g8zlYPMTtzhq7vqgTrL6Vj1FvoAEgccahqKHfX7GcwFsaN4gQCHKFlsqzmT1gc%3D\"}],\"group\":\"cf-nel\",\"max_age\":604800}\n1 < NEL: {\"success_fraction\":0,\"report_to\":\"cf-nel\",\"max_age\":604800}\n1 < Vary: Accept-Encoding\n1 < Server: cloudflare\n1 < CF-RAY: 71824e5799378140-ORD\n1 < alt-svc: h3=\":443\"; ma=86400, h3-29=\":443\"; ma=86400\n{\"data\":{\"id\":2,\"email\":\"janet.weaver@reqres.in\",\"first_name\":\"Janet\",\"last_name\":\"Weaver\",\"avatar\":\"https:\/\/reqres.in\/img\/faces\/2-image.jpg\"},\"support\":{\"url\":\"https:\/\/reqres.in\/#support-heading\",\"text\":\"To keep ReqRes free, contributions towards server costs are appreciated!\"}}\n\n"},{"result":{"nanos":3424300,"millis":3.4243,"status":"passed"},"step":{"line":6,"prefix":"Then","index":2,"text":"status 200"}}],"executorName":"main","line":3,"name":"Fetch and print the api","description":"","durationMillis":737.819,"startTime":1654698425096,"failed":false,"refId":"[1:3]","endTime":1654698425846,"exampleIndex":-1},{"sectionIndex":1,"stepResults":[{"result":{"nanos":16910300,"millis":16.9103,"status":"passed"},"step":{"endLine":13,"line":9,"prefix":"*","docString":"{\"data\":{\"id\":2,\"email\":\"janet.weaver@reqres.in\",\"first_name\":\"Janet\",\"last_name\":\"Weaver\",\"avatar\":\"https:\/\/reqres.in\/img\/faces\/2-image.jpg\"},\"support\":{\"url\":\"https:\/\/reqres.in\/#support-heading\",\"text\":\"To keep ReqRes free, contributions towards server costs are appreciated!\"}}","index":0,"text":"def jsonObject ="}},{"result":{"nanos":61292800,"millis":61.2928,"status":"passed"},"step":{"line":14,"prefix":"*","index":1,"text":"print jsonObject"},"stepLog":"10:27:05.929 [print] {\n  \"data\": {\n    \"id\": 2,\n    \"email\": \"janet.weaver@reqres.in\",\n    \"first_name\": \"Janet\",\n    \"last_name\": \"Weaver\",\n    \"avatar\": \"https:\/\/reqres.in\/img\/faces\/2-image.jpg\"\n  },\n  \"support\": {\n    \"url\": \"https:\/\/reqres.in\/#support-heading\",\n    \"text\": \"To keep ReqRes free, contributions towards server costs are appreciated!\"\n  }\n}\n \n"},{"result":{"nanos":9080600,"millis":9.0806,"status":"passed"},"step":{"line":15,"prefix":"*","index":2,"text":"print jsonObject.data.email + \"\" + jsonObject.support.url"},"stepLog":"10:27:05.939 [print] janet.weaver@reqres.inhttps:\/\/reqres.in\/#support-heading \n"},{"result":{"nanos":1228800,"millis":1.2288,"status":"passed"},"step":{"line":16,"prefix":"*","index":3,"text":"print 'The email is ' + jsonObject.data.email + ' and I have originated from ' + jsonObject.support.url"},"stepLog":"10:27:05.940 [print] The email is janet.weaver@reqres.in and I have originated from https:\/\/reqres.in\/#support-heading \n"}],"executorName":"main","line":8,"name":"Print the fetched API","description":"","durationMillis":88.5125,"startTime":1654698425852,"failed":false,"refId":"[2:8]","endTime":1654698425941,"exampleIndex":-1},{"sectionIndex":2,"stepResults":[{"result":{"nanos":451200,"millis":0.4512,"status":"passed"},"step":{"line":19,"prefix":"Given","index":0,"text":"url 'https:\/\/reqres.in\/api\/users\/23'"}},{"result":{"nanos":265939200,"millis":265.9392,"status":"passed"},"step":{"line":20,"prefix":"When","index":1,"text":"method GET"},"stepLog":"10:27:05.947 request:\n1 > GET https:\/\/reqres.in\/api\/users\/23\n1 > Host: reqres.in\n1 > Connection: Keep-Alive\n1 > User-Agent: Apache-HttpClient\/4.5.12 (Java\/18.0.1.1)\n1 > Accept-Encoding: gzip,deflate\n\n\n10:27:06.211 response time in milliseconds: 264\n1 < 404\n1 < Date: Wed, 08 Jun 2022 14:27:03 GMT\n1 < Content-Type: application\/json; charset=utf-8\n1 < Content-Length: 2\n1 < Connection: keep-alive\n1 < X-Powered-By: Express\n1 < Access-Control-Allow-Origin: *\n1 < Etag: W\/\"2-vyGp6PvFo4RvsFtPoIWeCReyIC8\"\n1 < Via: 1.1 vegur\n1 < Cache-Control: max-age=14400\n1 < CF-Cache-Status: HIT\n1 < Age: 58\n1 < Expect-CT: max-age=604800, report-uri=\"https:\/\/report-uri.cloudflare.com\/cdn-cgi\/beacon\/expect-ct\"\n1 < Report-To: {\"endpoints\":[{\"url\":\"https:\\\/\\\/a.nel.cloudflare.com\\\/report\\\/v3?s=eQMrd06DNV9dhwz3uY4cWizmLzV4jovVCYimaFDgloOZJfvgDGJTiMgxiwOYWLQdjOC1iSqGiOyitMRd22CNKSp9KTJIxSJxPao9NuXj57jiiHcO5INq0W1A9Zk%3D\"}],\"group\":\"cf-nel\",\"max_age\":604800}\n1 < NEL: {\"success_fraction\":0,\"report_to\":\"cf-nel\",\"max_age\":604800}\n1 < Vary: Accept-Encoding\n1 < Server: cloudflare\n1 < CF-RAY: 71824e5a1b52872e-ORD\n1 < alt-svc: h3=\":443\"; ma=86400, h3-29=\":443\"; ma=86400\n{}\n\n"},{"result":{"nanos":27800,"millis":0.0278,"status":"passed"},"step":{"line":21,"prefix":"Then","index":2,"text":"status 404"}}],"executorName":"main","line":18,"name":"negative test case","description":"","durationMillis":266.4182,"startTime":1654698425945,"failed":false,"refId":"[3:18]","endTime":1654698426212,"exampleIndex":-1},{"sectionIndex":3,"stepResults":[{"result":{"nanos":363000,"millis":0.363,"status":"passed"},"step":{"line":24,"prefix":"Given","index":0,"text":"url 'https:\/\/reqres.in\/api\/users\/23'"}},{"result":{"nanos":196993200,"millis":196.9932,"status":"passed"},"step":{"line":25,"prefix":"When","index":1,"text":"method GET"},"stepLog":"10:27:06.217 request:\n1 > GET https:\/\/reqres.in\/api\/users\/23\n1 > Host: reqres.in\n1 > Connection: Keep-Alive\n1 > User-Agent: Apache-HttpClient\/4.5.12 (Java\/18.0.1.1)\n1 > Accept-Encoding: gzip,deflate\n\n\n10:27:06.412 response time in milliseconds: 195\n1 < 404\n1 < Date: Wed, 08 Jun 2022 14:27:03 GMT\n1 < Content-Type: application\/json; charset=utf-8\n1 < Content-Length: 2\n1 < Connection: keep-alive\n1 < X-Powered-By: Express\n1 < Access-Control-Allow-Origin: *\n1 < Etag: W\/\"2-vyGp6PvFo4RvsFtPoIWeCReyIC8\"\n1 < Via: 1.1 vegur\n1 < Cache-Control: max-age=14400\n1 < CF-Cache-Status: HIT\n1 < Age: 58\n1 < Expect-CT: max-age=604800, report-uri=\"https:\/\/report-uri.cloudflare.com\/cdn-cgi\/beacon\/expect-ct\"\n1 < Report-To: {\"endpoints\":[{\"url\":\"https:\\\/\\\/a.nel.cloudflare.com\\\/report\\\/v3?s=wkHxMJEp1YM9Vy5QEkDFXSK1eF0U0bo8Oi1sOQmzz8Vsta%2FTYwA3SbRkjwmLwaj0WY6Z4jib0NZtM7b4xGnwU979%2BmYIY0uJPpJera7BA6OCSph7bnWGw1gh8Dk%3D\"}],\"group\":\"cf-nel\",\"max_age\":604800}\n1 < NEL: {\"success_fraction\":0,\"report_to\":\"cf-nel\",\"max_age\":604800}\n1 < Vary: Accept-Encoding\n1 < Server: cloudflare\n1 < CF-RAY: 71824e5b6f932db2-ORD\n1 < alt-svc: h3=\":443\"; ma=86400, h3-29=\":443\"; ma=86400\n{}\n\n"},{"result":{"nanos":127600,"errorMessage":"status code was: 404, expected: 200, response time in milliseconds: 195, url: https:\/\/reqres.in\/api\/users\/23, response: \n{}\nsrc\/test\/java\/tests\/FetchURL.feature:26","millis":0.1276,"status":"failed"},"step":{"line":26,"prefix":"Then","index":2,"text":"status 200"},"stepLog":"10:27:06.413 src\/test\/java\/tests\/FetchURL.feature:26\nThen status 200\nstatus code was: 404, expected: 200, response time in milliseconds: 195, url: https:\/\/reqres.in\/api\/users\/23, response: \n{}\nsrc\/test\/java\/tests\/FetchURL.feature:26\n"}],"line":23,"description":"","durationMillis":197.4838,"failed":true,"error":"status code was: 404, expected: 200, response time in milliseconds: 195, url: https:\/\/reqres.in\/api\/users\/23, response: \n{}\nsrc\/test\/java\/tests\/FetchURL.feature:26","executorName":"main","name":"negative test case :part 2","startTime":1654698426215,"refId":"[4:23]","endTime":1654698426413,"exampleIndex":-1},{"sectionIndex":4,"stepResults":[{"result":{"nanos":577000,"millis":0.577,"status":"passed"},"step":{"endLine":32,"line":29,"prefix":"*","docString":"{\"page\":1,\"per_page\":6,\"total\":12,\"total_pages\":2,\"data\":[{\"id\":1,\"name\":\"cerulean\",\"year\":2000,\"color\":\"#98B2D1\",\"pantone_value\":\"15-4020\"},{\"id\":2,\"name\":\"fuchsia rose\",\"year\":2001,\"color\":\"#C74375\",\"pantone_value\":\"17-2031\"},{\"id\":3,\"name\":\"true red\",\"year\":2002,\"color\":\"#BF1932\",\"pantone_value\":\"19-1664\"},{\"id\":4,\"name\":\"aqua sky\",\"year\":2003,\"color\":\"#7BC4C4\",\"pantone_value\":\"14-4811\"},{\"id\":5,\"name\":\"tigerlily\",\"year\":2004,\"color\":\"#E2583E\",\"pantone_value\":\"17-1456\"},{\"id\":6,\"name\":\"blue turquoise\",\"year\":2005,\"color\":\"#53B0AE\",\"pantone_value\":\"15-5217\"}],\"support\":{\"url\":\"https:\/\/reqres.in\/#support-heading\",\"text\":\"To keep ReqRes free, contributions towards server costs are appreciated!\"}}","index":0,"text":"def sec_json ="}},{"result":{"nanos":1287100,"millis":1.2871,"status":"passed"},"step":{"line":33,"prefix":"*","index":1,"text":"print sec_json"},"stepLog":"10:27:06.419 [print] {\n  \"page\": 1,\n  \"per_page\": 6,\n  \"total\": 12,\n  \"total_pages\": 2,\n  \"data\": [\n    {\n      \"id\": 1,\n      \"name\": \"cerulean\",\n      \"year\": 2000,\n      \"color\": \"#98B2D1\",\n      \"pantone_value\": \"15-4020\"\n    },\n    {\n      \"id\": 2,\n      \"name\": \"fuchsia rose\",\n      \"year\": 2001,\n      \"color\": \"#C74375\",\n      \"pantone_value\": \"17-2031\"\n    },\n    {\n      \"id\": 3,\n      \"name\": \"true red\",\n      \"year\": 2002,\n      \"color\": \"#BF1932\",\n      \"pantone_value\": \"19-1664\"\n    },\n    {\n      \"id\": 4,\n      \"name\": \"aqua sky\",\n      \"year\": 2003,\n      \"color\": \"#7BC4C4\",\n      \"pantone_value\": \"14-4811\"\n    },\n    {\n      \"id\": 5,\n      \"name\": \"tigerlily\",\n      \"year\": 2004,\n      \"color\": \"#E2583E\",\n      \"pantone_value\": \"17-1456\"\n    },\n    {\n      \"id\": 6,\n      \"name\": \"blue turquoise\",\n      \"year\": 2005,\n      \"color\": \"#53B0AE\",\n      \"pantone_value\": \"15-5217\"\n    }\n  ],\n  \"support\": {\n    \"url\": \"https:\/\/reqres.in\/#support-heading\",\n    \"text\": \"To keep ReqRes free, contributions towards server costs are appreciated!\"\n  }\n}\n \n"},{"result":{"nanos":917500,"millis":0.9175,"status":"passed"},"step":{"line":34,"prefix":"*","index":2,"text":"print sec_json.page"},"stepLog":"10:27:06.420 [print] 1 \n"},{"result":{"nanos":10182600,"millis":10.1826,"status":"passed"},"step":{"line":35,"prefix":"*","index":3,"text":"print sec_json. data[1].color"},"stepLog":"10:27:06.430 [print] #C74375 \n"},{"result":{"nanos":1213500,"millis":1.2135,"status":"passed"},"step":{"line":36,"prefix":"*","index":4,"text":"print sec_json.data[2]"},"stepLog":"10:27:06.431 [print] {\n  \"id\": 3,\n  \"name\": \"true red\",\n  \"year\": 2002,\n  \"color\": \"#BF1932\",\n  \"pantone_value\": \"19-1664\"\n}\n \n"}],"executorName":"main","line":28,"name":"Go into the API details","description":"","durationMillis":14.1777,"startTime":1654698426417,"failed":false,"refId":"[5:28]","endTime":1654698426431,"exampleIndex":-1},{"sectionIndex":5,"stepResults":[{"result":{"nanos":529200,"millis":0.5292,"status":"passed"},"step":{"line":39,"prefix":"Given","index":0,"text":"url 'https:\/\/gorest.co.in\/public\/v2\/users'"}},{"result":{"nanos":503600,"millis":0.5036,"status":"passed"},"step":{"line":40,"prefix":"And","index":1,"text":"path '2241'"}},{"result":{"nanos":820118700,"millis":820.1187,"status":"passed"},"step":{"line":41,"prefix":"When","index":2,"text":"method GET"},"stepLog":"10:27:06.436 request:\n1 > GET https:\/\/gorest.co.in\/public\/v2\/users\/2241\n1 > Host: gorest.co.in\n1 > Connection: Keep-Alive\n1 > User-Agent: Apache-HttpClient\/4.5.12 (Java\/18.0.1.1)\n1 > Accept-Encoding: gzip,deflate\n\n\n10:27:07.254 response time in milliseconds: 818\n1 < 200\n1 < Server: nginx\n1 < Date: Wed, 08 Jun 2022 14:27:04 GMT\n1 < Content-Type: application\/json; charset=utf-8\n1 < Transfer-Encoding: chunked\n1 < Connection: keep-alive\n1 < Vary: Accept-Encoding\n1 < Vary: Origin\n1 < X-Frame-Options: SAMEORIGIN\n1 < X-XSS-Protection: 0\n1 < X-Content-Type-Options: nosniff\n1 < X-Download-Options: noopen\n1 < X-Permitted-Cross-Domain-Policies: none\n1 < Referrer-Policy: strict-origin-when-cross-origin\n1 < ETag: W\/\"f7c2c5a4bf4310bc2db8bb9b9861cb62\"\n1 < Cache-Control: max-age=0, private, must-revalidate\n1 < X-Request-Id: 73addad5-8671-422c-92cb-7d50f90eb4c9\n1 < X-Runtime: 0.003527\n1 < Strict-Transport-Security: max-age=63072000; includeSubDomains\n{\"id\":2241,\"name\":\"Bhagwati Mahajan\",\"email\":\"bhagwati_mahajan@stehr.net\",\"gender\":\"female\",\"status\":\"inactive\"}\n\n"},{"result":{"nanos":15000,"millis":0.015,"status":"passed"},"step":{"line":42,"prefix":"Then","index":3,"text":"status 200"}}],"executorName":"main","line":38,"name":"GET API- GoRest Feature","description":"","durationMillis":821.1665,"startTime":1654698426434,"failed":false,"refId":"[6:38]","endTime":1654698427254,"exampleIndex":-1},{"sectionIndex":6,"stepResults":[{"result":{"nanos":261300,"millis":0.2613,"status":"passed"},"step":{"line":45,"prefix":"Given","index":0,"text":"url 'https:\/\/gorest.co.in\/public\/v2\/users'"}},{"result":{"nanos":404300,"millis":0.4043,"status":"passed"},"step":{"line":46,"prefix":"And","index":1,"text":"path '21'"}},{"result":{"nanos":839899600,"millis":839.8996,"status":"passed"},"step":{"line":47,"prefix":"When","index":2,"text":"method GET"},"stepLog":"10:27:07.260 request:\n1 > GET https:\/\/gorest.co.in\/public\/v2\/users\/21\n1 > Host: gorest.co.in\n1 > Connection: Keep-Alive\n1 > User-Agent: Apache-HttpClient\/4.5.12 (Java\/18.0.1.1)\n1 > Accept-Encoding: gzip,deflate\n\n\n10:27:08.098 response time in milliseconds: 837\n1 < 404\n1 < Server: nginx\n1 < Date: Wed, 08 Jun 2022 14:27:05 GMT\n1 < Content-Type: application\/json; charset=utf-8\n1 < Transfer-Encoding: chunked\n1 < Connection: keep-alive\n1 < Vary: Accept-Encoding\n1 < Vary: Origin\n1 < X-Frame-Options: SAMEORIGIN\n1 < X-XSS-Protection: 0\n1 < X-Content-Type-Options: nosniff\n1 < X-Download-Options: noopen\n1 < X-Permitted-Cross-Domain-Policies: none\n1 < Referrer-Policy: strict-origin-when-cross-origin\n1 < Cache-Control: no-cache\n1 < X-Request-Id: 83a5cf66-dc1e-4e9f-9d98-1c0496539a87\n1 < X-Runtime: 0.002891\n1 < Strict-Transport-Security: max-age=63072000; includeSubDomains\n{\"message\":\"Resource not found\"}\n\n"},{"result":{"nanos":18300,"millis":0.0183,"status":"passed"},"step":{"line":48,"prefix":"Then","index":3,"text":"status 404"}},{"result":{"nanos":1247000,"millis":1.247,"status":"passed"},"step":{"line":49,"prefix":"*","index":4,"text":"print response"},"stepLog":"10:27:08.099 [print] {\n  \"message\": \"Resource not found\"\n}\n \n"}],"executorName":"main","line":44,"name":"GET API- GoRest Feature Part 2- Negative Test case","description":"","durationMillis":841.8305,"startTime":1654698427258,"failed":false,"refId":"[7:44]","endTime":1654698428099,"exampleIndex":-1}],"callDepth":0,"name":"Fetch API from URL","description":"","resultDate":"2022-06-08 10:27:08 AM","durationMillis":2967.4082,"passedCount":6}