{"failedCount":0,"prefixedPath":"src\/test\/java\/tests\/Sample.feature","packageQualifiedName":"src.test.java.tests.Sample","loopIndex":-1,"relativePath":"src\/test\/java\/tests\/Sample.feature","scenarioResults":[{"sectionIndex":0,"stepResults":[{"result":{"nanos":162156800,"millis":162.1568,"status":"passed"},"step":{"line":4,"prefix":"*","index":0,"text":"print 'hello world'"},"stepLog":"08:50:51.016 [print] hello world \n"},{"result":{"nanos":1032000,"millis":1.032,"status":"passed"},"step":{"line":5,"prefix":"Given","index":1,"text":"url 'https:\/\/reqres.in\/api\/users?page=2'"}},{"result":{"nanos":1160313200,"millis":1160.3132,"status":"passed"},"step":{"line":6,"prefix":"When","index":2,"text":"method GET"},"stepLog":"08:50:51.428 request:\n1 > GET https:\/\/reqres.in\/api\/users?page=2\n1 > Host: reqres.in\n1 > Connection: Keep-Alive\n1 > User-Agent: Apache-HttpClient\/4.5.12 (Java\/18.0.1.1)\n1 > Accept-Encoding: gzip,deflate\n\n\n08:50:52.106 response time in milliseconds: 672\n1 < 200\n1 < Date: Wed, 08 Jun 2022 12:50:49 GMT\n1 < Content-Type: application\/json; charset=utf-8\n1 < Transfer-Encoding: chunked\n1 < Connection: keep-alive\n1 < X-Powered-By: Express\n1 < Access-Control-Allow-Origin: *\n1 < Etag: W\/\"406-ut0vzoCuidvyMf8arZpMpJ6ZRDw\"\n1 < Via: 1.1 vegur\n1 < Cache-Control: max-age=14400\n1 < CF-Cache-Status: HIT\n1 < Age: 4786\n1 < Expect-CT: max-age=604800, report-uri=\"https:\/\/report-uri.cloudflare.com\/cdn-cgi\/beacon\/expect-ct\"\n1 < Report-To: {\"endpoints\":[{\"url\":\"https:\\\/\\\/a.nel.cloudflare.com\\\/report\\\/v3?s=43fFtlOHILcl3P9DwF1ywa2eR4HQ6xB3Q8AOJekxyQFpRhF2KF5O7GxwWBr5CgG3el%2B5cXCXZXMyS4ppactnxgcTEK6m8AlE5bFocqeZMoBAH%2BQeO4lR9utkKSI%3D\"}],\"group\":\"cf-nel\",\"max_age\":604800}\n1 < NEL: {\"success_fraction\":0,\"report_to\":\"cf-nel\",\"max_age\":604800}\n1 < Vary: Accept-Encoding\n1 < Server: cloudflare\n1 < CF-RAY: 7181c1617b7e29f4-ORD\n1 < alt-svc: h3=\":443\"; ma=86400, h3-29=\":443\"; ma=86400\n{\"page\":2,\"per_page\":6,\"total\":12,\"total_pages\":2,\"data\":[{\"id\":7,\"email\":\"michael.lawson@reqres.in\",\"first_name\":\"Michael\",\"last_name\":\"Lawson\",\"avatar\":\"https:\/\/reqres.in\/img\/faces\/7-image.jpg\"},{\"id\":8,\"email\":\"lindsay.ferguson@reqres.in\",\"first_name\":\"Lindsay\",\"last_name\":\"Ferguson\",\"avatar\":\"https:\/\/reqres.in\/img\/faces\/8-image.jpg\"},{\"id\":9,\"email\":\"tobias.funke@reqres.in\",\"first_name\":\"Tobias\",\"last_name\":\"Funke\",\"avatar\":\"https:\/\/reqres.in\/img\/faces\/9-image.jpg\"},{\"id\":10,\"email\":\"byron.fields@reqres.in\",\"first_name\":\"Byron\",\"last_name\":\"Fields\",\"avatar\":\"https:\/\/reqres.in\/img\/faces\/10-image.jpg\"},{\"id\":11,\"email\":\"george.edwards@reqres.in\",\"first_name\":\"George\",\"last_name\":\"Edwards\",\"avatar\":\"https:\/\/reqres.in\/img\/faces\/11-image.jpg\"},{\"id\":12,\"email\":\"rachel.howell@reqres.in\",\"first_name\":\"Rachel\",\"last_name\":\"Howell\",\"avatar\":\"https:\/\/reqres.in\/img\/faces\/12-image.jpg\"}],\"support\":{\"url\":\"https:\/\/reqres.in\/#support-heading\",\"text\":\"To keep ReqRes free, contributions towards server costs are appreciated!\"}}\n\n"},{"result":{"nanos":5302300,"millis":5.3023,"status":"passed"},"step":{"line":7,"prefix":"Then","index":3,"text":"status 200"}}],"executorName":"main","line":3,"name":"Test a sample get API","description":"","durationMillis":1328.8043,"startTime":1654692650833,"failed":false,"refId":"[1:3]","endTime":1654692652186,"exampleIndex":-1}],"callDepth":0,"name":"API Test Sample","description":"","resultDate":"2022-06-08 08:50:52 AM","durationMillis":1328.8043,"passedCount":1}