{"failedCount":2,"prefixedPath":"src\/test\/java\/tests\/FetchURL.feature","packageQualifiedName":"src.test.java.tests.FetchURL","loopIndex":-1,"relativePath":"src\/test\/java\/tests\/FetchURL.feature","scenarioResults":[{"sectionIndex":0,"stepResults":[{"result":{"nanos":1845400,"millis":1.8454,"status":"passed"},"step":{"line":4,"prefix":"Given","index":0,"text":"url 'https:\/\/reqres.in\/api\/users\/2'"}},{"result":{"nanos":857682800,"millis":857.6828,"status":"passed"},"step":{"line":5,"prefix":"When","index":1,"text":"method GET"},"stepLog":"10:47:28.308 request:\n1 > GET https:\/\/reqres.in\/api\/users\/2\n1 > Host: reqres.in\n1 > Connection: Keep-Alive\n1 > User-Agent: Apache-HttpClient\/4.5.12 (Java\/18.0.1.1)\n1 > Accept-Encoding: gzip,deflate\n\n\n10:47:28.926 response time in milliseconds: 615\n1 < 200\n1 < Date: Wed, 08 Jun 2022 14:47:26 GMT\n1 < Content-Type: application\/json; charset=utf-8\n1 < Transfer-Encoding: chunked\n1 < Connection: keep-alive\n1 < X-Powered-By: Express\n1 < Access-Control-Allow-Origin: *\n1 < Etag: W\/\"118-pbdwwFo9SKNhD3Lx5iHJyngpq00\"\n1 < Via: 1.1 vegur\n1 < Cache-Control: max-age=14400\n1 < CF-Cache-Status: HIT\n1 < Age: 3874\n1 < Expect-CT: max-age=604800, report-uri=\"https:\/\/report-uri.cloudflare.com\/cdn-cgi\/beacon\/expect-ct\"\n1 < Report-To: {\"endpoints\":[{\"url\":\"https:\\\/\\\/a.nel.cloudflare.com\\\/report\\\/v3?s=f8htEQ1rRjsQYEFrYdoWYluZzUu8w6NVfLCCGpfv88snhEKz4CF37hRRACu4Z9Sc9mTp0xh%2FhsHjKLe6O0sXUm89fUOz3P3UmI7NvgFdPCjqaX0tTpzp0TGZ5l0%3D\"}],\"group\":\"cf-nel\",\"max_age\":604800}\n1 < NEL: {\"success_fraction\":0,\"report_to\":\"cf-nel\",\"max_age\":604800}\n1 < Vary: Accept-Encoding\n1 < Server: cloudflare\n1 < CF-RAY: 71826c342e852a2d-ORD\n1 < alt-svc: h3=\":443\"; ma=86400, h3-29=\":443\"; ma=86400\n{\"data\":{\"id\":2,\"email\":\"janet.weaver@reqres.in\",\"first_name\":\"Janet\",\"last_name\":\"Weaver\",\"avatar\":\"https:\/\/reqres.in\/img\/faces\/2-image.jpg\"},\"support\":{\"url\":\"https:\/\/reqres.in\/#support-heading\",\"text\":\"To keep ReqRes free, contributions towards server costs are appreciated!\"}}\n\n"},{"result":{"nanos":2055800,"millis":2.0558,"status":"passed"},"step":{"line":6,"prefix":"Then","index":2,"text":"status 200"}}],"executorName":"main","line":3,"name":"Fetch and print the api","description":"","durationMillis":861.584,"startTime":1654699647895,"failed":false,"refId":"[1:3]","endTime":1654699648951,"exampleIndex":-1},{"sectionIndex":1,"stepResults":[{"result":{"nanos":14476100,"millis":14.4761,"status":"passed"},"step":{"endLine":13,"line":9,"prefix":"*","docString":"{\"data\":{\"id\":2,\"email\":\"janet.weaver@reqres.in\",\"first_name\":\"Janet\",\"last_name\":\"Weaver\",\"avatar\":\"https:\/\/reqres.in\/img\/faces\/2-image.jpg\"},\"support\":{\"url\":\"https:\/\/reqres.in\/#support-heading\",\"text\":\"To keep ReqRes free, contributions towards server costs are appreciated!\"}}","index":0,"text":"def jsonObject ="}},{"result":{"nanos":7490200,"millis":7.4902,"status":"passed"},"step":{"line":14,"prefix":"*","index":1,"text":"print jsonObject"},"stepLog":"10:47:28.978 [print] {\n  \"data\": {\n    \"id\": 2,\n    \"email\": \"janet.weaver@reqres.in\",\n    \"first_name\": \"Janet\",\n    \"last_name\": \"Weaver\",\n    \"avatar\": \"https:\/\/reqres.in\/img\/faces\/2-image.jpg\"\n  },\n  \"support\": {\n    \"url\": \"https:\/\/reqres.in\/#support-heading\",\n    \"text\": \"To keep ReqRes free, contributions towards server costs are appreciated!\"\n  }\n}\n \n"},{"result":{"nanos":6631700,"millis":6.6317,"status":"passed"},"step":{"line":15,"prefix":"*","index":2,"text":"print jsonObject.data.email + \"\" + jsonObject.support.url"},"stepLog":"10:47:28.985 [print] janet.weaver@reqres.inhttps:\/\/reqres.in\/#support-heading \n"},{"result":{"nanos":1205800,"millis":1.2058,"status":"passed"},"step":{"line":16,"prefix":"*","index":3,"text":"print 'The email is ' + jsonObject.data.email + ' and I have originated from ' + jsonObject.support.url"},"stepLog":"10:47:28.986 [print] The email is janet.weaver@reqres.in and I have originated from https:\/\/reqres.in\/#support-heading \n"}],"executorName":"main","line":8,"name":"Print the fetched API","description":"","durationMillis":29.8038,"startTime":1654699648955,"failed":false,"refId":"[2:8]","endTime":1654699648986,"exampleIndex":-1},{"sectionIndex":2,"stepResults":[{"result":{"nanos":478400,"millis":0.4784,"status":"passed"},"step":{"line":19,"prefix":"Given","index":0,"text":"url 'https:\/\/reqres.in\/api\/users\/23'"}},{"result":{"nanos":530860100,"millis":530.8601,"status":"passed"},"step":{"line":20,"prefix":"When","index":1,"text":"method GET"},"stepLog":"10:47:28.991 request:\n1 > GET https:\/\/reqres.in\/api\/users\/23\n1 > Host: reqres.in\n1 > Connection: Keep-Alive\n1 > User-Agent: Apache-HttpClient\/4.5.12 (Java\/18.0.1.1)\n1 > Accept-Encoding: gzip,deflate\n\n\n10:47:29.520 response time in milliseconds: 529\n1 < 404\n1 < Date: Wed, 08 Jun 2022 14:47:26 GMT\n1 < Content-Type: application\/json; charset=utf-8\n1 < Content-Length: 2\n1 < Connection: keep-alive\n1 < X-Powered-By: Express\n1 < Access-Control-Allow-Origin: *\n1 < Etag: W\/\"2-vyGp6PvFo4RvsFtPoIWeCReyIC8\"\n1 < Via: 1.1 vegur\n1 < Cache-Control: max-age=14400\n1 < CF-Cache-Status: EXPIRED\n1 < Expect-CT: max-age=604800, report-uri=\"https:\/\/report-uri.cloudflare.com\/cdn-cgi\/beacon\/expect-ct\"\n1 < Report-To: {\"endpoints\":[{\"url\":\"https:\\\/\\\/a.nel.cloudflare.com\\\/report\\\/v3?s=zoSuD4EQpKsighYX6e8KGDed7IG7yVlum4UpFAPGv4Jost1wmaS%2Fl0J8s0ecKTqonSkmqYtWtfWIjU%2BtFdKMCX5q%2BOxvHbTFwpfbH8OqW6YLgLDsfkdc3oip%2BM4%3D\"}],\"group\":\"cf-nel\",\"max_age\":604800}\n1 < NEL: {\"success_fraction\":0,\"report_to\":\"cf-nel\",\"max_age\":604800}\n1 < Vary: Accept-Encoding\n1 < Server: cloudflare\n1 < CF-RAY: 71826c36ad068747-ORD\n1 < alt-svc: h3=\":443\"; ma=86400, h3-29=\":443\"; ma=86400\n{}\n\n"},{"result":{"nanos":19500,"millis":0.0195,"status":"passed"},"step":{"line":21,"prefix":"Then","index":2,"text":"status 404"}}],"executorName":"main","line":18,"name":"negative test case","description":"","durationMillis":531.358,"startTime":1654699648989,"failed":false,"refId":"[3:18]","endTime":1654699649521,"exampleIndex":-1},{"sectionIndex":3,"stepResults":[{"result":{"nanos":288100,"millis":0.2881,"status":"passed"},"step":{"line":24,"prefix":"Given","index":0,"text":"url 'https:\/\/reqres.in\/api\/users\/23'"}},{"result":{"nanos":326963300,"millis":326.9633,"status":"passed"},"step":{"line":25,"prefix":"When","index":1,"text":"method GET"},"stepLog":"10:47:29.527 request:\n1 > GET https:\/\/reqres.in\/api\/users\/23\n1 > Host: reqres.in\n1 > Connection: Keep-Alive\n1 > User-Agent: Apache-HttpClient\/4.5.12 (Java\/18.0.1.1)\n1 > Accept-Encoding: gzip,deflate\n\n\n10:47:29.853 response time in milliseconds: 326\n1 < 404\n1 < Date: Wed, 08 Jun 2022 14:47:27 GMT\n1 < Content-Type: application\/json; charset=utf-8\n1 < Content-Length: 2\n1 < Connection: keep-alive\n1 < X-Powered-By: Express\n1 < Access-Control-Allow-Origin: *\n1 < Etag: W\/\"2-vyGp6PvFo4RvsFtPoIWeCReyIC8\"\n1 < Via: 1.1 vegur\n1 < Cache-Control: max-age=14400\n1 < CF-Cache-Status: HIT\n1 < Age: 1\n1 < Expect-CT: max-age=604800, report-uri=\"https:\/\/report-uri.cloudflare.com\/cdn-cgi\/beacon\/expect-ct\"\n1 < Report-To: {\"endpoints\":[{\"url\":\"https:\\\/\\\/a.nel.cloudflare.com\\\/report\\\/v3?s=aeojmArDe7rxg90Y3cEtsueuRNMnj9l31xbAHyK4D0BIpKdaKf5jQL3HjgNb3579wMzi57MhyE4wrE1BaZJ%2BQhM6jsxPE%2FhZ%2Fj7ZU8SRuK5NhfZmOWBCfi9FVyk%3D\"}],\"group\":\"cf-nel\",\"max_age\":604800}\n1 < NEL: {\"success_fraction\":0,\"report_to\":\"cf-nel\",\"max_age\":604800}\n1 < Vary: Accept-Encoding\n1 < Server: cloudflare\n1 < CF-RAY: 71826c39ffc22c58-ORD\n1 < alt-svc: h3=\":443\"; ma=86400, h3-29=\":443\"; ma=86400\n{}\n\n"},{"result":{"nanos":118600,"errorMessage":"status code was: 404, expected: 200, response time in milliseconds: 326, url: https:\/\/reqres.in\/api\/users\/23, response: \n{}\nsrc\/test\/java\/tests\/FetchURL.feature:26","millis":0.1186,"status":"failed"},"step":{"line":26,"prefix":"Then","index":2,"text":"status 200"},"stepLog":"10:47:29.854 src\/test\/java\/tests\/FetchURL.feature:26\nThen status 200\nstatus code was: 404, expected: 200, response time in milliseconds: 326, url: https:\/\/reqres.in\/api\/users\/23, response: \n{}\nsrc\/test\/java\/tests\/FetchURL.feature:26\n"}],"line":23,"description":"","durationMillis":327.37,"failed":true,"error":"status code was: 404, expected: 200, response time in milliseconds: 326, url: https:\/\/reqres.in\/api\/users\/23, response: \n{}\nsrc\/test\/java\/tests\/FetchURL.feature:26","executorName":"main","name":"negative test case :part 2","startTime":1654699649525,"refId":"[4:23]","endTime":1654699649854,"exampleIndex":-1},{"sectionIndex":4,"stepResults":[{"result":{"nanos":596500,"millis":0.5965,"status":"passed"},"step":{"endLine":32,"line":29,"prefix":"*","docString":"{\"page\":1,\"per_page\":6,\"total\":12,\"total_pages\":2,\"data\":[{\"id\":1,\"name\":\"cerulean\",\"year\":2000,\"color\":\"#98B2D1\",\"pantone_value\":\"15-4020\"},{\"id\":2,\"name\":\"fuchsia rose\",\"year\":2001,\"color\":\"#C74375\",\"pantone_value\":\"17-2031\"},{\"id\":3,\"name\":\"true red\",\"year\":2002,\"color\":\"#BF1932\",\"pantone_value\":\"19-1664\"},{\"id\":4,\"name\":\"aqua sky\",\"year\":2003,\"color\":\"#7BC4C4\",\"pantone_value\":\"14-4811\"},{\"id\":5,\"name\":\"tigerlily\",\"year\":2004,\"color\":\"#E2583E\",\"pantone_value\":\"17-1456\"},{\"id\":6,\"name\":\"blue turquoise\",\"year\":2005,\"color\":\"#53B0AE\",\"pantone_value\":\"15-5217\"}],\"support\":{\"url\":\"https:\/\/reqres.in\/#support-heading\",\"text\":\"To keep ReqRes free, contributions towards server costs are appreciated!\"}}","index":0,"text":"def sec_json ="}},{"result":{"nanos":1278800,"millis":1.2788,"status":"passed"},"step":{"line":33,"prefix":"*","index":1,"text":"print sec_json"},"stepLog":"10:47:29.859 [print] {\n  \"page\": 1,\n  \"per_page\": 6,\n  \"total\": 12,\n  \"total_pages\": 2,\n  \"data\": [\n    {\n      \"id\": 1,\n      \"name\": \"cerulean\",\n      \"year\": 2000,\n      \"color\": \"#98B2D1\",\n      \"pantone_value\": \"15-4020\"\n    },\n    {\n      \"id\": 2,\n      \"name\": \"fuchsia rose\",\n      \"year\": 2001,\n      \"color\": \"#C74375\",\n      \"pantone_value\": \"17-2031\"\n    },\n    {\n      \"id\": 3,\n      \"name\": \"true red\",\n      \"year\": 2002,\n      \"color\": \"#BF1932\",\n      \"pantone_value\": \"19-1664\"\n    },\n    {\n      \"id\": 4,\n      \"name\": \"aqua sky\",\n      \"year\": 2003,\n      \"color\": \"#7BC4C4\",\n      \"pantone_value\": \"14-4811\"\n    },\n    {\n      \"id\": 5,\n      \"name\": \"tigerlily\",\n      \"year\": 2004,\n      \"color\": \"#E2583E\",\n      \"pantone_value\": \"17-1456\"\n    },\n    {\n      \"id\": 6,\n      \"name\": \"blue turquoise\",\n      \"year\": 2005,\n      \"color\": \"#53B0AE\",\n      \"pantone_value\": \"15-5217\"\n    }\n  ],\n  \"support\": {\n    \"url\": \"https:\/\/reqres.in\/#support-heading\",\n    \"text\": \"To keep ReqRes free, contributions towards server costs are appreciated!\"\n  }\n}\n \n"},{"result":{"nanos":918000,"millis":0.918,"status":"passed"},"step":{"line":34,"prefix":"*","index":2,"text":"print sec_json.page"},"stepLog":"10:47:29.860 [print] 1 \n"},{"result":{"nanos":3954100,"millis":3.9541,"status":"passed"},"step":{"line":35,"prefix":"*","index":3,"text":"print sec_json. data[1].color"},"stepLog":"10:47:29.864 [print] #C74375 \n"},{"result":{"nanos":2616400,"millis":2.6164,"status":"passed"},"step":{"line":36,"prefix":"*","index":4,"text":"print sec_json.data[2]"},"stepLog":"10:47:29.867 [print] {\n  \"id\": 3,\n  \"name\": \"true red\",\n  \"year\": 2002,\n  \"color\": \"#BF1932\",\n  \"pantone_value\": \"19-1664\"\n}\n \n"}],"executorName":"main","line":28,"name":"Go into the API details","description":"","durationMillis":9.3638,"startTime":1654699649857,"failed":false,"refId":"[5:28]","endTime":1654699649867,"exampleIndex":-1},{"sectionIndex":5,"stepResults":[{"result":{"nanos":840200,"millis":0.8402,"status":"passed"},"step":{"line":39,"prefix":"Given","index":0,"text":"url baseUrl + '\/public\/v2\/users'"}},{"result":{"nanos":720600,"millis":0.7206,"status":"passed"},"step":{"line":40,"prefix":"And","index":1,"text":"path '2241'"}},{"result":{"nanos":1137356500,"millis":1137.3565,"status":"passed"},"step":{"line":41,"prefix":"When","index":2,"text":"method GET"},"stepLog":"10:47:29.875 request:\n1 > GET https:\/\/gorest.co.in\/public\/v2\/users\/2241\n1 > Host: gorest.co.in\n1 > Connection: Keep-Alive\n1 > User-Agent: Apache-HttpClient\/4.5.12 (Java\/18.0.1.1)\n1 > Accept-Encoding: gzip,deflate\n\n\n10:47:31.011 response time in milliseconds: 1135\n1 < 200\n1 < Server: nginx\n1 < Date: Wed, 08 Jun 2022 14:47:28 GMT\n1 < Content-Type: application\/json; charset=utf-8\n1 < Transfer-Encoding: chunked\n1 < Connection: keep-alive\n1 < Vary: Accept-Encoding\n1 < Vary: Origin\n1 < X-Frame-Options: SAMEORIGIN\n1 < X-XSS-Protection: 0\n1 < X-Content-Type-Options: nosniff\n1 < X-Download-Options: noopen\n1 < X-Permitted-Cross-Domain-Policies: none\n1 < Referrer-Policy: strict-origin-when-cross-origin\n1 < ETag: W\/\"f7c2c5a4bf4310bc2db8bb9b9861cb62\"\n1 < Cache-Control: max-age=0, private, must-revalidate\n1 < X-Request-Id: 4fc2a467-c33a-4025-90b0-b713c3749bf1\n1 < X-Runtime: 0.003197\n1 < Strict-Transport-Security: max-age=63072000; includeSubDomains\n{\"id\":2241,\"name\":\"Bhagwati Mahajan\",\"email\":\"bhagwati_mahajan@stehr.net\",\"gender\":\"female\",\"status\":\"inactive\"}\n\n"},{"result":{"nanos":14400,"millis":0.0144,"status":"passed"},"step":{"line":42,"prefix":"Then","index":3,"text":"status 200"}},{"result":{"nanos":1060400,"millis":1.0604,"status":"passed"},"step":{"line":43,"prefix":"*","index":4,"text":"print response"},"stepLog":"10:47:31.012 [print] {\n  \"id\": 2241,\n  \"name\": \"Bhagwati Mahajan\",\n  \"email\": \"bhagwati_mahajan@stehr.net\",\n  \"gender\": \"female\",\n  \"status\": \"inactive\"\n}\n \n"},{"result":{"nanos":3770100,"millis":3.7701,"status":"passed"},"step":{"line":44,"prefix":"*","index":5,"text":"def result = response"}},{"result":{"nanos":2256900,"millis":2.2569,"status":"passed"},"step":{"line":45,"prefix":"*","index":6,"text":"print result"},"stepLog":"10:47:31.019 [print] {\n  \"id\": 2241,\n  \"name\": \"Bhagwati Mahajan\",\n  \"email\": \"bhagwati_mahajan@stehr.net\",\n  \"gender\": \"female\",\n  \"status\": \"inactive\"\n}\n \n"},{"result":{"nanos":781000,"millis":0.781,"status":"passed"},"step":{"line":46,"prefix":"*","index":7,"text":"def actName = result.gender"}},{"result":{"nanos":648700,"millis":0.6487,"status":"passed"},"step":{"line":47,"prefix":"*","index":8,"text":"print actName"},"stepLog":"10:47:31.021 [print] female \n"},{"result":{"nanos":7806000,"millis":7.806,"status":"passed"},"step":{"line":48,"prefix":"*","index":9,"text":"match actName == 'female'"}},{"result":{"nanos":747700,"millis":0.7477,"status":"passed"},"step":{"line":49,"prefix":"*","index":10,"text":"def actID = result.id"}},{"result":{"nanos":1174700,"millis":1.1747,"status":"passed"},"step":{"line":50,"prefix":"*","index":11,"text":"print actID"},"stepLog":"10:47:31.031 [print] 2241 \n"},{"result":{"nanos":2561600,"errorMessage":"match failed: EQUALS\n  $ | not equal (NUMBER:NUMBER)\n  2241\n  2240\n\nsrc\/test\/java\/tests\/FetchURL.feature:51","millis":2.5616,"status":"failed"},"step":{"line":51,"prefix":"*","index":12,"text":"match actID == 2240"},"stepLog":"10:47:31.033 src\/test\/java\/tests\/FetchURL.feature:51\n* match actID == 2240\nmatch failed: EQUALS\n  $ | not equal (NUMBER:NUMBER)\n  2241\n  2240\n\nsrc\/test\/java\/tests\/FetchURL.feature:51\n"},{"result":{"nanos":0,"millis":0.0,"status":"skipped"},"step":{"line":52,"prefix":"*","index":13,"text":"print myVarName"}}],"line":38,"description":"","durationMillis":1159.7388,"failed":true,"error":"match failed: EQUALS\n  $ | not equal (NUMBER:NUMBER)\n  2241\n  2240\n\nsrc\/test\/java\/tests\/FetchURL.feature:51","executorName":"main","name":"GET API- GoRest Feature","startTime":1654699649871,"refId":"[6:38]","endTime":1654699651034,"exampleIndex":-1},{"sectionIndex":6,"stepResults":[{"result":{"nanos":538600,"millis":0.5386,"status":"passed"},"step":{"line":55,"prefix":"Given","index":0,"text":"url 'https:\/\/gorest.co.in\/public\/v2\/users'"}},{"result":{"nanos":384900,"millis":0.3849,"status":"passed"},"step":{"line":56,"prefix":"And","index":1,"text":"path '21'"}},{"result":{"nanos":940924800,"millis":940.9248,"status":"passed"},"step":{"line":57,"prefix":"When","index":2,"text":"method GET"},"stepLog":"10:47:31.041 request:\n1 > GET https:\/\/gorest.co.in\/public\/v2\/users\/21\n1 > Host: gorest.co.in\n1 > Connection: Keep-Alive\n1 > User-Agent: Apache-HttpClient\/4.5.12 (Java\/18.0.1.1)\n1 > Accept-Encoding: gzip,deflate\n\n\n10:47:31.980 response time in milliseconds: 939\n1 < 404\n1 < Server: nginx\n1 < Date: Wed, 08 Jun 2022 14:47:29 GMT\n1 < Content-Type: application\/json; charset=utf-8\n1 < Transfer-Encoding: chunked\n1 < Connection: keep-alive\n1 < Vary: Accept-Encoding\n1 < Vary: Origin\n1 < X-Frame-Options: SAMEORIGIN\n1 < X-XSS-Protection: 0\n1 < X-Content-Type-Options: nosniff\n1 < X-Download-Options: noopen\n1 < X-Permitted-Cross-Domain-Policies: none\n1 < Referrer-Policy: strict-origin-when-cross-origin\n1 < Cache-Control: no-cache\n1 < X-Request-Id: d99d42c8-7c07-4097-bf84-bbe5de1a94a6\n1 < X-Runtime: 0.002874\n1 < Strict-Transport-Security: max-age=63072000; includeSubDomains\n{\"message\":\"Resource not found\"}\n\n"},{"result":{"nanos":21800,"millis":0.0218,"status":"passed"},"step":{"line":58,"prefix":"Then","index":3,"text":"status 404"}},{"result":{"nanos":1599500,"millis":1.5995,"status":"passed"},"step":{"line":59,"prefix":"*","index":4,"text":"print response"},"stepLog":"10:47:31.982 [print] {\n  \"message\": \"Resource not found\"\n}\n \n"}],"executorName":"main","line":54,"name":"GET API- GoRest Feature Part 2- Negative Test case","description":"","durationMillis":943.4696,"startTime":1654699651037,"failed":false,"refId":"[7:54]","endTime":1654699651982,"exampleIndex":-1}],"callDepth":0,"name":"Fetch API from URL","description":"","resultDate":"2022-06-08 10:47:31 AM","durationMillis":3862.688,"passedCount":5}