{"failedCount":2,"prefixedPath":"src\/test\/java\/tests\/FetchURL.feature","packageQualifiedName":"src.test.java.tests.FetchURL","loopIndex":-1,"relativePath":"src\/test\/java\/tests\/FetchURL.feature","scenarioResults":[{"sectionIndex":0,"stepResults":[{"result":{"nanos":91389100,"millis":91.3891,"status":"passed"},"step":{"line":4,"prefix":"Given","index":0,"text":"url 'https:\/\/reqres.in\/api\/users\/2'"}},{"result":{"nanos":713875600,"millis":713.8756,"status":"passed"},"step":{"line":5,"prefix":"When","index":1,"text":"method GET"},"stepLog":"10:32:38.013 request:\n1 > GET https:\/\/reqres.in\/api\/users\/2\n1 > Host: reqres.in\n1 > Connection: Keep-Alive\n1 > User-Agent: Apache-HttpClient\/4.5.12 (Java\/18.0.1.1)\n1 > Accept-Encoding: gzip,deflate\n\n\n10:32:38.471 response time in milliseconds: 457\n1 < 200\n1 < Date: Wed, 08 Jun 2022 14:32:35 GMT\n1 < Content-Type: application\/json; charset=utf-8\n1 < Transfer-Encoding: chunked\n1 < Connection: keep-alive\n1 < X-Powered-By: Express\n1 < Access-Control-Allow-Origin: *\n1 < Etag: W\/\"118-pbdwwFo9SKNhD3Lx5iHJyngpq00\"\n1 < Via: 1.1 vegur\n1 < Cache-Control: max-age=14400\n1 < CF-Cache-Status: HIT\n1 < Age: 3314\n1 < Expect-CT: max-age=604800, report-uri=\"https:\/\/report-uri.cloudflare.com\/cdn-cgi\/beacon\/expect-ct\"\n1 < Report-To: {\"endpoints\":[{\"url\":\"https:\\\/\\\/a.nel.cloudflare.com\\\/report\\\/v3?s=Ock%2BnVe4PyTQdilI33yM4tCC0AbJ0V%2BBZFDHwVHvoEjE2zwHiJ2cbQ0%2Brvv4N3q4ZB024wIoFHSq26PqVwH0pgUincYeSjJ%2B%2BGr1Yer5b4v77l2g4KZzxPBsDcw%3D\"}],\"group\":\"cf-nel\",\"max_age\":604800}\n1 < NEL: {\"success_fraction\":0,\"report_to\":\"cf-nel\",\"max_age\":604800}\n1 < Vary: Accept-Encoding\n1 < Server: cloudflare\n1 < CF-RAY: 71825676acb08704-ORD\n1 < alt-svc: h3=\":443\"; ma=86400, h3-29=\":443\"; ma=86400\n{\"data\":{\"id\":2,\"email\":\"janet.weaver@reqres.in\",\"first_name\":\"Janet\",\"last_name\":\"Weaver\",\"avatar\":\"https:\/\/reqres.in\/img\/faces\/2-image.jpg\"},\"support\":{\"url\":\"https:\/\/reqres.in\/#support-heading\",\"text\":\"To keep ReqRes free, contributions towards server costs are appreciated!\"}}\n\n"},{"result":{"nanos":2041600,"millis":2.0416,"status":"passed"},"step":{"line":6,"prefix":"Then","index":2,"text":"status 200"}}],"executorName":"main","line":3,"name":"Fetch and print the api","description":"","durationMillis":807.3063,"startTime":1654698757676,"failed":false,"refId":"[1:3]","endTime":1654698758496,"exampleIndex":-1},{"sectionIndex":1,"stepResults":[{"result":{"nanos":13876400,"millis":13.8764,"status":"passed"},"step":{"endLine":13,"line":9,"prefix":"*","docString":"{\"data\":{\"id\":2,\"email\":\"janet.weaver@reqres.in\",\"first_name\":\"Janet\",\"last_name\":\"Weaver\",\"avatar\":\"https:\/\/reqres.in\/img\/faces\/2-image.jpg\"},\"support\":{\"url\":\"https:\/\/reqres.in\/#support-heading\",\"text\":\"To keep ReqRes free, contributions towards server costs are appreciated!\"}}","index":0,"text":"def jsonObject ="}},{"result":{"nanos":50730100,"millis":50.7301,"status":"passed"},"step":{"line":14,"prefix":"*","index":1,"text":"print jsonObject"},"stepLog":"10:32:38.565 [print] {\n  \"data\": {\n    \"id\": 2,\n    \"email\": \"janet.weaver@reqres.in\",\n    \"first_name\": \"Janet\",\n    \"last_name\": \"Weaver\",\n    \"avatar\": \"https:\/\/reqres.in\/img\/faces\/2-image.jpg\"\n  },\n  \"support\": {\n    \"url\": \"https:\/\/reqres.in\/#support-heading\",\n    \"text\": \"To keep ReqRes free, contributions towards server costs are appreciated!\"\n  }\n}\n \n"},{"result":{"nanos":8449600,"millis":8.4496,"status":"passed"},"step":{"line":15,"prefix":"*","index":2,"text":"print jsonObject.data.email + \"\" + jsonObject.support.url"},"stepLog":"10:32:38.575 [print] janet.weaver@reqres.inhttps:\/\/reqres.in\/#support-heading \n"},{"result":{"nanos":977900,"millis":0.9779,"status":"passed"},"step":{"line":16,"prefix":"*","index":3,"text":"print 'The email is ' + jsonObject.data.email + ' and I have originated from ' + jsonObject.support.url"},"stepLog":"10:32:38.576 [print] The email is janet.weaver@reqres.in and I have originated from https:\/\/reqres.in\/#support-heading \n"}],"executorName":"main","line":8,"name":"Print the fetched API","description":"","durationMillis":74.034,"startTime":1654698758501,"failed":false,"refId":"[2:8]","endTime":1654698758576,"exampleIndex":-1},{"sectionIndex":2,"stepResults":[{"result":{"nanos":817600,"millis":0.8176,"status":"passed"},"step":{"line":19,"prefix":"Given","index":0,"text":"url 'https:\/\/reqres.in\/api\/users\/23'"}},{"result":{"nanos":417744100,"millis":417.7441,"status":"passed"},"step":{"line":20,"prefix":"When","index":1,"text":"method GET"},"stepLog":"10:32:38.581 request:\n1 > GET https:\/\/reqres.in\/api\/users\/23\n1 > Host: reqres.in\n1 > Connection: Keep-Alive\n1 > User-Agent: Apache-HttpClient\/4.5.12 (Java\/18.0.1.1)\n1 > Accept-Encoding: gzip,deflate\n\n\n10:32:38.997 response time in milliseconds: 416\n1 < 404\n1 < Date: Wed, 08 Jun 2022 14:32:36 GMT\n1 < Content-Type: application\/json; charset=utf-8\n1 < Content-Length: 2\n1 < Connection: keep-alive\n1 < X-Powered-By: Express\n1 < Access-Control-Allow-Origin: *\n1 < Etag: W\/\"2-vyGp6PvFo4RvsFtPoIWeCReyIC8\"\n1 < Via: 1.1 vegur\n1 < Cache-Control: max-age=14400\n1 < CF-Cache-Status: EXPIRED\n1 < Expect-CT: max-age=604800, report-uri=\"https:\/\/report-uri.cloudflare.com\/cdn-cgi\/beacon\/expect-ct\"\n1 < Report-To: {\"endpoints\":[{\"url\":\"https:\\\/\\\/a.nel.cloudflare.com\\\/report\\\/v3?s=0MRGCrEOuAFeVvte0Q8eliKjQHrpfyE0CzvaAJrpyfd24Eut11jOmdc9QkQGxO1q1YAjoANGmSSMW974JgN9sz0%2BkjPxHO2x55XTeRWzM2iFfx5Q5F1XNDJoNEQ%3D\"}],\"group\":\"cf-nel\",\"max_age\":604800}\n1 < NEL: {\"success_fraction\":0,\"report_to\":\"cf-nel\",\"max_age\":604800}\n1 < Vary: Accept-Encoding\n1 < Server: cloudflare\n1 < CF-RAY: 71825678db32c50c-ORD\n1 < alt-svc: h3=\":443\"; ma=86400, h3-29=\":443\"; ma=86400\n{}\n\n"},{"result":{"nanos":14700,"millis":0.0147,"status":"passed"},"step":{"line":21,"prefix":"Then","index":2,"text":"status 404"}}],"executorName":"main","line":18,"name":"negative test case","description":"","durationMillis":418.5764,"startTime":1654698758580,"failed":false,"refId":"[3:18]","endTime":1654698758998,"exampleIndex":-1},{"sectionIndex":3,"stepResults":[{"result":{"nanos":286200,"millis":0.2862,"status":"passed"},"step":{"line":24,"prefix":"Given","index":0,"text":"url 'https:\/\/reqres.in\/api\/users\/23'"}},{"result":{"nanos":427628500,"millis":427.6285,"status":"passed"},"step":{"line":25,"prefix":"When","index":1,"text":"method GET"},"stepLog":"10:32:39.003 request:\n1 > GET https:\/\/reqres.in\/api\/users\/23\n1 > Host: reqres.in\n1 > Connection: Keep-Alive\n1 > User-Agent: Apache-HttpClient\/4.5.12 (Java\/18.0.1.1)\n1 > Accept-Encoding: gzip,deflate\n\n\n10:32:39.429 response time in milliseconds: 426\n1 < 404\n1 < Date: Wed, 08 Jun 2022 14:32:36 GMT\n1 < Content-Type: application\/json; charset=utf-8\n1 < Content-Length: 2\n1 < Connection: keep-alive\n1 < X-Powered-By: Express\n1 < Access-Control-Allow-Origin: *\n1 < Etag: W\/\"2-vyGp6PvFo4RvsFtPoIWeCReyIC8\"\n1 < Via: 1.1 vegur\n1 < Cache-Control: max-age=14400\n1 < CF-Cache-Status: EXPIRED\n1 < Expect-CT: max-age=604800, report-uri=\"https:\/\/report-uri.cloudflare.com\/cdn-cgi\/beacon\/expect-ct\"\n1 < Report-To: {\"endpoints\":[{\"url\":\"https:\\\/\\\/a.nel.cloudflare.com\\\/report\\\/v3?s=O4kNZlEPqhBUZrKQY7ZUDlnp8iMkvkVbssOY24LGUZNKSV6AGOm%2FXSE4lj7kij%2BfuZK82qRRrg9OO%2BMBklsTDSCWeHh%2Bg0OHP1X9pp%2Fn7ZWySILUhTx4ykeoxME%3D\"}],\"group\":\"cf-nel\",\"max_age\":604800}\n1 < NEL: {\"success_fraction\":0,\"report_to\":\"cf-nel\",\"max_age\":604800}\n1 < Vary: Accept-Encoding\n1 < Server: cloudflare\n1 < CF-RAY: 7182567b8efd2c40-ORD\n1 < alt-svc: h3=\":443\"; ma=86400, h3-29=\":443\"; ma=86400\n{}\n\n"},{"result":{"nanos":84200,"errorMessage":"status code was: 404, expected: 200, response time in milliseconds: 426, url: https:\/\/reqres.in\/api\/users\/23, response: \n{}\nsrc\/test\/java\/tests\/FetchURL.feature:26","millis":0.0842,"status":"failed"},"step":{"line":26,"prefix":"Then","index":2,"text":"status 200"},"stepLog":"10:32:39.430 src\/test\/java\/tests\/FetchURL.feature:26\nThen status 200\nstatus code was: 404, expected: 200, response time in milliseconds: 426, url: https:\/\/reqres.in\/api\/users\/23, response: \n{}\nsrc\/test\/java\/tests\/FetchURL.feature:26\n"}],"line":23,"description":"","durationMillis":427.9989,"failed":true,"error":"status code was: 404, expected: 200, response time in milliseconds: 426, url: https:\/\/reqres.in\/api\/users\/23, response: \n{}\nsrc\/test\/java\/tests\/FetchURL.feature:26","executorName":"main","name":"negative test case :part 2","startTime":1654698759001,"refId":"[4:23]","endTime":1654698759430,"exampleIndex":-1},{"sectionIndex":4,"stepResults":[{"result":{"nanos":406000,"millis":0.406,"status":"passed"},"step":{"endLine":32,"line":29,"prefix":"*","docString":"{\"page\":1,\"per_page\":6,\"total\":12,\"total_pages\":2,\"data\":[{\"id\":1,\"name\":\"cerulean\",\"year\":2000,\"color\":\"#98B2D1\",\"pantone_value\":\"15-4020\"},{\"id\":2,\"name\":\"fuchsia rose\",\"year\":2001,\"color\":\"#C74375\",\"pantone_value\":\"17-2031\"},{\"id\":3,\"name\":\"true red\",\"year\":2002,\"color\":\"#BF1932\",\"pantone_value\":\"19-1664\"},{\"id\":4,\"name\":\"aqua sky\",\"year\":2003,\"color\":\"#7BC4C4\",\"pantone_value\":\"14-4811\"},{\"id\":5,\"name\":\"tigerlily\",\"year\":2004,\"color\":\"#E2583E\",\"pantone_value\":\"17-1456\"},{\"id\":6,\"name\":\"blue turquoise\",\"year\":2005,\"color\":\"#53B0AE\",\"pantone_value\":\"15-5217\"}],\"support\":{\"url\":\"https:\/\/reqres.in\/#support-heading\",\"text\":\"To keep ReqRes free, contributions towards server costs are appreciated!\"}}","index":0,"text":"def sec_json ="}},{"result":{"nanos":1004800,"millis":1.0048,"status":"passed"},"step":{"line":33,"prefix":"*","index":1,"text":"print sec_json"},"stepLog":"10:32:39.434 [print] {\n  \"page\": 1,\n  \"per_page\": 6,\n  \"total\": 12,\n  \"total_pages\": 2,\n  \"data\": [\n    {\n      \"id\": 1,\n      \"name\": \"cerulean\",\n      \"year\": 2000,\n      \"color\": \"#98B2D1\",\n      \"pantone_value\": \"15-4020\"\n    },\n    {\n      \"id\": 2,\n      \"name\": \"fuchsia rose\",\n      \"year\": 2001,\n      \"color\": \"#C74375\",\n      \"pantone_value\": \"17-2031\"\n    },\n    {\n      \"id\": 3,\n      \"name\": \"true red\",\n      \"year\": 2002,\n      \"color\": \"#BF1932\",\n      \"pantone_value\": \"19-1664\"\n    },\n    {\n      \"id\": 4,\n      \"name\": \"aqua sky\",\n      \"year\": 2003,\n      \"color\": \"#7BC4C4\",\n      \"pantone_value\": \"14-4811\"\n    },\n    {\n      \"id\": 5,\n      \"name\": \"tigerlily\",\n      \"year\": 2004,\n      \"color\": \"#E2583E\",\n      \"pantone_value\": \"17-1456\"\n    },\n    {\n      \"id\": 6,\n      \"name\": \"blue turquoise\",\n      \"year\": 2005,\n      \"color\": \"#53B0AE\",\n      \"pantone_value\": \"15-5217\"\n    }\n  ],\n  \"support\": {\n    \"url\": \"https:\/\/reqres.in\/#support-heading\",\n    \"text\": \"To keep ReqRes free, contributions towards server costs are appreciated!\"\n  }\n}\n \n"},{"result":{"nanos":812100,"millis":0.8121,"status":"passed"},"step":{"line":34,"prefix":"*","index":2,"text":"print sec_json.page"},"stepLog":"10:32:39.435 [print] 1 \n"},{"result":{"nanos":7917300,"millis":7.9173,"status":"passed"},"step":{"line":35,"prefix":"*","index":3,"text":"print sec_json. data[1].color"},"stepLog":"10:32:39.442 [print] #C74375 \n"},{"result":{"nanos":984000,"millis":0.984,"status":"passed"},"step":{"line":36,"prefix":"*","index":4,"text":"print sec_json.data[2]"},"stepLog":"10:32:39.443 [print] {\n  \"id\": 3,\n  \"name\": \"true red\",\n  \"year\": 2002,\n  \"color\": \"#BF1932\",\n  \"pantone_value\": \"19-1664\"\n}\n \n"}],"executorName":"main","line":28,"name":"Go into the API details","description":"","durationMillis":11.1242,"startTime":1654698759432,"failed":false,"refId":"[5:28]","endTime":1654698759443,"exampleIndex":-1},{"sectionIndex":5,"stepResults":[{"result":{"nanos":467600,"millis":0.4676,"status":"passed"},"step":{"line":39,"prefix":"Given","index":0,"text":"url 'https:\/\/gorest.co.in\/public\/v2\/users'"}},{"result":{"nanos":433600,"millis":0.4336,"status":"passed"},"step":{"line":40,"prefix":"And","index":1,"text":"path '2241'"}},{"result":{"nanos":985367500,"millis":985.3675,"status":"passed"},"step":{"line":41,"prefix":"When","index":2,"text":"method GET"},"stepLog":"10:32:39.448 request:\n1 > GET https:\/\/gorest.co.in\/public\/v2\/users\/2241\n1 > Host: gorest.co.in\n1 > Connection: Keep-Alive\n1 > User-Agent: Apache-HttpClient\/4.5.12 (Java\/18.0.1.1)\n1 > Accept-Encoding: gzip,deflate\n\n\n10:32:40.432 response time in milliseconds: 984\n1 < 200\n1 < Server: nginx\n1 < Date: Wed, 08 Jun 2022 14:32:37 GMT\n1 < Content-Type: application\/json; charset=utf-8\n1 < Transfer-Encoding: chunked\n1 < Connection: keep-alive\n1 < Vary: Accept-Encoding\n1 < Vary: Origin\n1 < X-Frame-Options: SAMEORIGIN\n1 < X-XSS-Protection: 0\n1 < X-Content-Type-Options: nosniff\n1 < X-Download-Options: noopen\n1 < X-Permitted-Cross-Domain-Policies: none\n1 < Referrer-Policy: strict-origin-when-cross-origin\n1 < ETag: W\/\"f7c2c5a4bf4310bc2db8bb9b9861cb62\"\n1 < Cache-Control: max-age=0, private, must-revalidate\n1 < X-Request-Id: d6568c84-34cd-4b5f-bdcc-21001b0b637c\n1 < X-Runtime: 0.003040\n1 < Strict-Transport-Security: max-age=63072000; includeSubDomains\n{\"id\":2241,\"name\":\"Bhagwati Mahajan\",\"email\":\"bhagwati_mahajan@stehr.net\",\"gender\":\"female\",\"status\":\"inactive\"}\n\n"},{"result":{"nanos":17300,"millis":0.0173,"status":"passed"},"step":{"line":42,"prefix":"Then","index":3,"text":"status 200"}},{"result":{"nanos":1028100,"millis":1.0281,"status":"passed"},"step":{"line":43,"prefix":"*","index":4,"text":"print response"},"stepLog":"10:32:40.434 [print] {\n  \"id\": 2241,\n  \"name\": \"Bhagwati Mahajan\",\n  \"email\": \"bhagwati_mahajan@stehr.net\",\n  \"gender\": \"female\",\n  \"status\": \"inactive\"\n}\n \n"},{"result":{"nanos":4504500,"millis":4.5045,"status":"passed"},"step":{"line":44,"prefix":"*","index":5,"text":"def result = response"}},{"result":{"nanos":846400,"millis":0.8464,"status":"passed"},"step":{"line":45,"prefix":"*","index":6,"text":"print result"},"stepLog":"10:32:40.439 [print] {\n  \"id\": 2241,\n  \"name\": \"Bhagwati Mahajan\",\n  \"email\": \"bhagwati_mahajan@stehr.net\",\n  \"gender\": \"female\",\n  \"status\": \"inactive\"\n}\n \n"},{"result":{"nanos":496800,"millis":0.4968,"status":"passed"},"step":{"line":46,"prefix":"*","index":7,"text":"def actName = result.gender"}},{"result":{"nanos":520400,"millis":0.5204,"status":"passed"},"step":{"line":47,"prefix":"*","index":8,"text":"print actName"},"stepLog":"10:32:40.440 [print] female \n"},{"result":{"nanos":7025300,"millis":7.0253,"status":"passed"},"step":{"line":48,"prefix":"*","index":9,"text":"match actName == 'female'"}},{"result":{"nanos":765800,"millis":0.7658,"status":"passed"},"step":{"line":49,"prefix":"*","index":10,"text":"def actID = result.id"}},{"result":{"nanos":926100,"millis":0.9261,"status":"passed"},"step":{"line":50,"prefix":"*","index":11,"text":"print actID"},"stepLog":"10:32:40.449 [print] 2241 \n"},{"result":{"nanos":1508300,"errorMessage":"match failed: EQUALS\n  $ | data types don't match (NUMBER:STRING)\n  2241\n  '2240'\n\nsrc\/test\/java\/tests\/FetchURL.feature:51","millis":1.5083,"status":"failed"},"step":{"line":51,"prefix":"*","index":12,"text":"match actID == '2240'"},"stepLog":"10:32:40.451 src\/test\/java\/tests\/FetchURL.feature:51\n* match actID == '2240'\nmatch failed: EQUALS\n  $ | data types don't match (NUMBER:STRING)\n  2241\n  '2240'\n\nsrc\/test\/java\/tests\/FetchURL.feature:51\n"}],"line":38,"description":"","durationMillis":1003.9077,"failed":true,"error":"match failed: EQUALS\n  $ | data types don't match (NUMBER:STRING)\n  2241\n  '2240'\n\nsrc\/test\/java\/tests\/FetchURL.feature:51","executorName":"main","name":"GET API- GoRest Feature","startTime":1654698759446,"refId":"[6:38]","endTime":1654698760451,"exampleIndex":-1},{"sectionIndex":6,"stepResults":[{"result":{"nanos":198600,"millis":0.1986,"status":"passed"},"step":{"line":54,"prefix":"Given","index":0,"text":"url 'https:\/\/gorest.co.in\/public\/v2\/users'"}},{"result":{"nanos":333400,"millis":0.3334,"status":"passed"},"step":{"line":55,"prefix":"And","index":1,"text":"path '21'"}},{"result":{"nanos":930454000,"millis":930.454,"status":"passed"},"step":{"line":56,"prefix":"When","index":2,"text":"method GET"},"stepLog":"10:32:40.455 request:\n1 > GET https:\/\/gorest.co.in\/public\/v2\/users\/21\n1 > Host: gorest.co.in\n1 > Connection: Keep-Alive\n1 > User-Agent: Apache-HttpClient\/4.5.12 (Java\/18.0.1.1)\n1 > Accept-Encoding: gzip,deflate\n\n\n10:32:41.384 response time in milliseconds: 929\n1 < 404\n1 < Server: nginx\n1 < Date: Wed, 08 Jun 2022 14:32:38 GMT\n1 < Content-Type: application\/json; charset=utf-8\n1 < Transfer-Encoding: chunked\n1 < Connection: keep-alive\n1 < Vary: Accept-Encoding\n1 < Vary: Origin\n1 < X-Frame-Options: SAMEORIGIN\n1 < X-XSS-Protection: 0\n1 < X-Content-Type-Options: nosniff\n1 < X-Download-Options: noopen\n1 < X-Permitted-Cross-Domain-Policies: none\n1 < Referrer-Policy: strict-origin-when-cross-origin\n1 < Cache-Control: no-cache\n1 < X-Request-Id: bb158eb3-f6e7-476c-bb6f-8a0d6a28db2b\n1 < X-Runtime: 0.003134\n1 < Strict-Transport-Security: max-age=63072000; includeSubDomains\n{\"message\":\"Resource not found\"}\n\n"},{"result":{"nanos":17400,"millis":0.0174,"status":"passed"},"step":{"line":57,"prefix":"Then","index":3,"text":"status 404"}},{"result":{"nanos":454000,"millis":0.454,"status":"passed"},"step":{"line":58,"prefix":"*","index":4,"text":"print response"},"stepLog":"10:32:41.385 [print] {\n  \"message\": \"Resource not found\"\n}\n \n"}],"executorName":"main","line":53,"name":"GET API- GoRest Feature Part 2- Negative Test case","description":"","durationMillis":931.4574,"startTime":1654698760453,"failed":false,"refId":"[7:53]","endTime":1654698761385,"exampleIndex":-1}],"callDepth":0,"name":"Fetch API from URL","description":"","resultDate":"2022-06-08 10:32:41 AM","durationMillis":3674.4049,"passedCount":5}