{"failedCount":1,"prefixedPath":"src\/test\/java\/tests\/FetchURL.feature","packageQualifiedName":"src.test.java.tests.FetchURL","loopIndex":-1,"relativePath":"src\/test\/java\/tests\/FetchURL.feature","scenarioResults":[{"sectionIndex":0,"stepResults":[{"result":{"nanos":84592600,"millis":84.5926,"status":"passed"},"step":{"line":4,"prefix":"Given","index":0,"text":"url 'https:\/\/reqres.in\/api\/users\/2'"}},{"result":{"nanos":789144400,"millis":789.1444,"status":"passed"},"step":{"line":5,"prefix":"When","index":1,"text":"method GET"},"stepLog":"10:28:43.200 request:\n1 > GET https:\/\/reqres.in\/api\/users\/2\n1 > Host: reqres.in\n1 > Connection: Keep-Alive\n1 > User-Agent: Apache-HttpClient\/4.5.12 (Java\/18.0.1.1)\n1 > Accept-Encoding: gzip,deflate\n\n\n10:28:43.744 response time in milliseconds: 542\n1 < 200\n1 < Date: Wed, 08 Jun 2022 14:28:40 GMT\n1 < Content-Type: application\/json; charset=utf-8\n1 < Transfer-Encoding: chunked\n1 < Connection: keep-alive\n1 < X-Powered-By: Express\n1 < Access-Control-Allow-Origin: *\n1 < Etag: W\/\"118-pbdwwFo9SKNhD3Lx5iHJyngpq00\"\n1 < Via: 1.1 vegur\n1 < Cache-Control: max-age=14400\n1 < CF-Cache-Status: HIT\n1 < Age: 4407\n1 < Expect-CT: max-age=604800, report-uri=\"https:\/\/report-uri.cloudflare.com\/cdn-cgi\/beacon\/expect-ct\"\n1 < Report-To: {\"endpoints\":[{\"url\":\"https:\\\/\\\/a.nel.cloudflare.com\\\/report\\\/v3?s=BxuUd%2BTgV3Q%2BfHwJbPHkyNgZyJgaGHmCPYM21VO4blpxvtx4MMtmHmTdec70kOIguhmStvlqZ50iYn3IK%2FeR1zgWPURLqBqX9B3K73RFKe2R3pzT3BYdCe5B5vg%3D\"}],\"group\":\"cf-nel\",\"max_age\":604800}\n1 < NEL: {\"success_fraction\":0,\"report_to\":\"cf-nel\",\"max_age\":604800}\n1 < Vary: Accept-Encoding\n1 < Server: cloudflare\n1 < CF-RAY: 718250bbb84d6350-ORD\n1 < alt-svc: h3=\":443\"; ma=86400, h3-29=\":443\"; ma=86400\n{\"data\":{\"id\":2,\"email\":\"janet.weaver@reqres.in\",\"first_name\":\"Janet\",\"last_name\":\"Weaver\",\"avatar\":\"https:\/\/reqres.in\/img\/faces\/2-image.jpg\"},\"support\":{\"url\":\"https:\/\/reqres.in\/#support-heading\",\"text\":\"To keep ReqRes free, contributions towards server costs are appreciated!\"}}\n\n"},{"result":{"nanos":2197400,"millis":2.1974,"status":"passed"},"step":{"line":6,"prefix":"Then","index":2,"text":"status 200"}}],"executorName":"main","line":3,"name":"Fetch and print the api","description":"","durationMillis":875.9344,"startTime":1654698522880,"failed":false,"refId":"[1:3]","endTime":1654698523770,"exampleIndex":-1},{"sectionIndex":1,"stepResults":[{"result":{"nanos":15511400,"millis":15.5114,"status":"passed"},"step":{"endLine":13,"line":9,"prefix":"*","docString":"{\"data\":{\"id\":2,\"email\":\"janet.weaver@reqres.in\",\"first_name\":\"Janet\",\"last_name\":\"Weaver\",\"avatar\":\"https:\/\/reqres.in\/img\/faces\/2-image.jpg\"},\"support\":{\"url\":\"https:\/\/reqres.in\/#support-heading\",\"text\":\"To keep ReqRes free, contributions towards server costs are appreciated!\"}}","index":0,"text":"def jsonObject ="}},{"result":{"nanos":52575300,"millis":52.5753,"status":"passed"},"step":{"line":14,"prefix":"*","index":1,"text":"print jsonObject"},"stepLog":"10:28:43.844 [print] {\n  \"data\": {\n    \"id\": 2,\n    \"email\": \"janet.weaver@reqres.in\",\n    \"first_name\": \"Janet\",\n    \"last_name\": \"Weaver\",\n    \"avatar\": \"https:\/\/reqres.in\/img\/faces\/2-image.jpg\"\n  },\n  \"support\": {\n    \"url\": \"https:\/\/reqres.in\/#support-heading\",\n    \"text\": \"To keep ReqRes free, contributions towards server costs are appreciated!\"\n  }\n}\n \n"},{"result":{"nanos":7334900,"millis":7.3349,"status":"passed"},"step":{"line":15,"prefix":"*","index":2,"text":"print jsonObject.data.email + \"\" + jsonObject.support.url"},"stepLog":"10:28:43.851 [print] janet.weaver@reqres.inhttps:\/\/reqres.in\/#support-heading \n"},{"result":{"nanos":978500,"millis":0.9785,"status":"passed"},"step":{"line":16,"prefix":"*","index":3,"text":"print 'The email is ' + jsonObject.data.email + ' and I have originated from ' + jsonObject.support.url"},"stepLog":"10:28:43.852 [print] The email is janet.weaver@reqres.in and I have originated from https:\/\/reqres.in\/#support-heading \n"}],"executorName":"main","line":8,"name":"Print the fetched API","description":"","durationMillis":76.4001,"startTime":1654698523776,"failed":false,"refId":"[2:8]","endTime":1654698523852,"exampleIndex":-1},{"sectionIndex":2,"stepResults":[{"result":{"nanos":508900,"millis":0.5089,"status":"passed"},"step":{"line":19,"prefix":"Given","index":0,"text":"url 'https:\/\/reqres.in\/api\/users\/23'"}},{"result":{"nanos":444595400,"millis":444.5954,"status":"passed"},"step":{"line":20,"prefix":"When","index":1,"text":"method GET"},"stepLog":"10:28:43.858 request:\n1 > GET https:\/\/reqres.in\/api\/users\/23\n1 > Host: reqres.in\n1 > Connection: Keep-Alive\n1 > User-Agent: Apache-HttpClient\/4.5.12 (Java\/18.0.1.1)\n1 > Accept-Encoding: gzip,deflate\n\n\n10:28:44.301 response time in milliseconds: 443\n1 < 404\n1 < Date: Wed, 08 Jun 2022 14:28:41 GMT\n1 < Content-Type: application\/json; charset=utf-8\n1 < Content-Length: 2\n1 < Connection: keep-alive\n1 < X-Powered-By: Express\n1 < Access-Control-Allow-Origin: *\n1 < Etag: W\/\"2-vyGp6PvFo4RvsFtPoIWeCReyIC8\"\n1 < Via: 1.1 vegur\n1 < Cache-Control: max-age=14400\n1 < CF-Cache-Status: EXPIRED\n1 < Expect-CT: max-age=604800, report-uri=\"https:\/\/report-uri.cloudflare.com\/cdn-cgi\/beacon\/expect-ct\"\n1 < Report-To: {\"endpoints\":[{\"url\":\"https:\\\/\\\/a.nel.cloudflare.com\\\/report\\\/v3?s=eLwSNOjcui0rMTkmzLhp9wCTmQw8dzvbIFihMj2bLVDwOIjmdaTtkGX30GFgC7%2Bz8ZXvZAA4jQ4pr9U2Nai9Z1xkHIeP4EChNceJmphxua6tO8ibLrzRqQnCfmo%3D\"}],\"group\":\"cf-nel\",\"max_age\":604800}\n1 < NEL: {\"success_fraction\":0,\"report_to\":\"cf-nel\",\"max_age\":604800}\n1 < Vary: Accept-Encoding\n1 < Server: cloudflare\n1 < CF-RAY: 718250bdcf0c632a-ORD\n1 < alt-svc: h3=\":443\"; ma=86400, h3-29=\":443\"; ma=86400\n{}\n\n"},{"result":{"nanos":19400,"millis":0.0194,"status":"passed"},"step":{"line":21,"prefix":"Then","index":2,"text":"status 404"}}],"executorName":"main","line":18,"name":"negative test case","description":"","durationMillis":445.1237,"startTime":1654698523857,"failed":false,"refId":"[3:18]","endTime":1654698524302,"exampleIndex":-1},{"sectionIndex":3,"stepResults":[{"result":{"nanos":586200,"millis":0.5862,"status":"passed"},"step":{"line":24,"prefix":"Given","index":0,"text":"url 'https:\/\/reqres.in\/api\/users\/23'"}},{"result":{"nanos":1180149300,"millis":1180.1493,"status":"passed"},"step":{"line":25,"prefix":"When","index":1,"text":"method GET"},"stepLog":"10:28:44.308 request:\n1 > GET https:\/\/reqres.in\/api\/users\/23\n1 > Host: reqres.in\n1 > Connection: Keep-Alive\n1 > User-Agent: Apache-HttpClient\/4.5.12 (Java\/18.0.1.1)\n1 > Accept-Encoding: gzip,deflate\n\n\n10:28:45.486 response time in milliseconds: 1178\n1 < 404\n1 < Date: Wed, 08 Jun 2022 14:28:42 GMT\n1 < Content-Type: application\/json; charset=utf-8\n1 < Content-Length: 2\n1 < Connection: keep-alive\n1 < X-Powered-By: Express\n1 < Access-Control-Allow-Origin: *\n1 < Etag: W\/\"2-vyGp6PvFo4RvsFtPoIWeCReyIC8\"\n1 < Via: 1.1 vegur\n1 < Cache-Control: max-age=14400\n1 < CF-Cache-Status: HIT\n1 < Age: 157\n1 < Expect-CT: max-age=604800, report-uri=\"https:\/\/report-uri.cloudflare.com\/cdn-cgi\/beacon\/expect-ct\"\n1 < Report-To: {\"endpoints\":[{\"url\":\"https:\\\/\\\/a.nel.cloudflare.com\\\/report\\\/v3?s=XNYbhidUlSECHz2fezpmn0rWvp8CNfwEvUcDUtRJkwXHYr4paAUh%2BPYdszK0YCGKFgl7uJ%2BK81sdLVibJivFTdso%2BJaKSlp%2Fa9RwSUgOTydZSMNQlYBOkkjinVo%3D\"}],\"group\":\"cf-nel\",\"max_age\":604800}\n1 < NEL: {\"success_fraction\":0,\"report_to\":\"cf-nel\",\"max_age\":604800}\n1 < Vary: Accept-Encoding\n1 < Server: cloudflare\n1 < CF-RAY: 718250c6a9002c11-ORD\n1 < alt-svc: h3=\":443\"; ma=86400, h3-29=\":443\"; ma=86400\n{}\n\n"},{"result":{"nanos":105200,"errorMessage":"status code was: 404, expected: 200, response time in milliseconds: 1178, url: https:\/\/reqres.in\/api\/users\/23, response: \n{}\nsrc\/test\/java\/tests\/FetchURL.feature:26","millis":0.1052,"status":"failed"},"step":{"line":26,"prefix":"Then","index":2,"text":"status 200"},"stepLog":"10:28:45.487 src\/test\/java\/tests\/FetchURL.feature:26\nThen status 200\nstatus code was: 404, expected: 200, response time in milliseconds: 1178, url: https:\/\/reqres.in\/api\/users\/23, response: \n{}\nsrc\/test\/java\/tests\/FetchURL.feature:26\n"}],"line":23,"description":"","durationMillis":1180.8407,"failed":true,"error":"status code was: 404, expected: 200, response time in milliseconds: 1178, url: https:\/\/reqres.in\/api\/users\/23, response: \n{}\nsrc\/test\/java\/tests\/FetchURL.feature:26","executorName":"main","name":"negative test case :part 2","startTime":1654698524306,"refId":"[4:23]","endTime":1654698525487,"exampleIndex":-1},{"sectionIndex":4,"stepResults":[{"result":{"nanos":577500,"millis":0.5775,"status":"passed"},"step":{"endLine":32,"line":29,"prefix":"*","docString":"{\"page\":1,\"per_page\":6,\"total\":12,\"total_pages\":2,\"data\":[{\"id\":1,\"name\":\"cerulean\",\"year\":2000,\"color\":\"#98B2D1\",\"pantone_value\":\"15-4020\"},{\"id\":2,\"name\":\"fuchsia rose\",\"year\":2001,\"color\":\"#C74375\",\"pantone_value\":\"17-2031\"},{\"id\":3,\"name\":\"true red\",\"year\":2002,\"color\":\"#BF1932\",\"pantone_value\":\"19-1664\"},{\"id\":4,\"name\":\"aqua sky\",\"year\":2003,\"color\":\"#7BC4C4\",\"pantone_value\":\"14-4811\"},{\"id\":5,\"name\":\"tigerlily\",\"year\":2004,\"color\":\"#E2583E\",\"pantone_value\":\"17-1456\"},{\"id\":6,\"name\":\"blue turquoise\",\"year\":2005,\"color\":\"#53B0AE\",\"pantone_value\":\"15-5217\"}],\"support\":{\"url\":\"https:\/\/reqres.in\/#support-heading\",\"text\":\"To keep ReqRes free, contributions towards server costs are appreciated!\"}}","index":0,"text":"def sec_json ="}},{"result":{"nanos":1191800,"millis":1.1918,"status":"passed"},"step":{"line":33,"prefix":"*","index":1,"text":"print sec_json"},"stepLog":"10:28:45.492 [print] {\n  \"page\": 1,\n  \"per_page\": 6,\n  \"total\": 12,\n  \"total_pages\": 2,\n  \"data\": [\n    {\n      \"id\": 1,\n      \"name\": \"cerulean\",\n      \"year\": 2000,\n      \"color\": \"#98B2D1\",\n      \"pantone_value\": \"15-4020\"\n    },\n    {\n      \"id\": 2,\n      \"name\": \"fuchsia rose\",\n      \"year\": 2001,\n      \"color\": \"#C74375\",\n      \"pantone_value\": \"17-2031\"\n    },\n    {\n      \"id\": 3,\n      \"name\": \"true red\",\n      \"year\": 2002,\n      \"color\": \"#BF1932\",\n      \"pantone_value\": \"19-1664\"\n    },\n    {\n      \"id\": 4,\n      \"name\": \"aqua sky\",\n      \"year\": 2003,\n      \"color\": \"#7BC4C4\",\n      \"pantone_value\": \"14-4811\"\n    },\n    {\n      \"id\": 5,\n      \"name\": \"tigerlily\",\n      \"year\": 2004,\n      \"color\": \"#E2583E\",\n      \"pantone_value\": \"17-1456\"\n    },\n    {\n      \"id\": 6,\n      \"name\": \"blue turquoise\",\n      \"year\": 2005,\n      \"color\": \"#53B0AE\",\n      \"pantone_value\": \"15-5217\"\n    }\n  ],\n  \"support\": {\n    \"url\": \"https:\/\/reqres.in\/#support-heading\",\n    \"text\": \"To keep ReqRes free, contributions towards server costs are appreciated!\"\n  }\n}\n \n"},{"result":{"nanos":831300,"millis":0.8313,"status":"passed"},"step":{"line":34,"prefix":"*","index":2,"text":"print sec_json.page"},"stepLog":"10:28:45.493 [print] 1 \n"},{"result":{"nanos":7835700,"millis":7.8357,"status":"passed"},"step":{"line":35,"prefix":"*","index":3,"text":"print sec_json. data[1].color"},"stepLog":"10:28:45.501 [print] #C74375 \n"},{"result":{"nanos":1259500,"millis":1.2595,"status":"passed"},"step":{"line":36,"prefix":"*","index":4,"text":"print sec_json.data[2]"},"stepLog":"10:28:45.503 [print] {\n  \"id\": 3,\n  \"name\": \"true red\",\n  \"year\": 2002,\n  \"color\": \"#BF1932\",\n  \"pantone_value\": \"19-1664\"\n}\n \n"}],"executorName":"main","line":28,"name":"Go into the API details","description":"","durationMillis":11.6958,"startTime":1654698525491,"failed":false,"refId":"[5:28]","endTime":1654698525503,"exampleIndex":-1},{"sectionIndex":5,"stepResults":[{"result":{"nanos":737900,"millis":0.7379,"status":"passed"},"step":{"line":39,"prefix":"Given","index":0,"text":"url 'https:\/\/gorest.co.in\/public\/v2\/users'"}},{"result":{"nanos":646100,"millis":0.6461,"status":"passed"},"step":{"line":40,"prefix":"And","index":1,"text":"path '2241'"}},{"result":{"nanos":866198800,"millis":866.1988,"status":"passed"},"step":{"line":41,"prefix":"When","index":2,"text":"method GET"},"stepLog":"10:28:45.510 request:\n1 > GET https:\/\/gorest.co.in\/public\/v2\/users\/2241\n1 > Host: gorest.co.in\n1 > Connection: Keep-Alive\n1 > User-Agent: Apache-HttpClient\/4.5.12 (Java\/18.0.1.1)\n1 > Accept-Encoding: gzip,deflate\n\n\n10:28:46.374 response time in milliseconds: 864\n1 < 200\n1 < Server: nginx\n1 < Date: Wed, 08 Jun 2022 14:28:43 GMT\n1 < Content-Type: application\/json; charset=utf-8\n1 < Transfer-Encoding: chunked\n1 < Connection: keep-alive\n1 < Vary: Accept-Encoding\n1 < Vary: Origin\n1 < X-Frame-Options: SAMEORIGIN\n1 < X-XSS-Protection: 0\n1 < X-Content-Type-Options: nosniff\n1 < X-Download-Options: noopen\n1 < X-Permitted-Cross-Domain-Policies: none\n1 < Referrer-Policy: strict-origin-when-cross-origin\n1 < ETag: W\/\"f7c2c5a4bf4310bc2db8bb9b9861cb62\"\n1 < Cache-Control: max-age=0, private, must-revalidate\n1 < X-Request-Id: f2020bb8-7f31-42d0-8566-ed624c32695a\n1 < X-Runtime: 0.003435\n1 < Strict-Transport-Security: max-age=63072000; includeSubDomains\n{\"id\":2241,\"name\":\"Bhagwati Mahajan\",\"email\":\"bhagwati_mahajan@stehr.net\",\"gender\":\"female\",\"status\":\"inactive\"}\n\n"},{"result":{"nanos":12800,"millis":0.0128,"status":"passed"},"step":{"line":42,"prefix":"Then","index":3,"text":"status 200"}},{"result":{"nanos":886600,"millis":0.8866,"status":"passed"},"step":{"line":43,"prefix":"*","index":4,"text":"print response"},"stepLog":"10:28:46.376 [print] {\n  \"id\": 2241,\n  \"name\": \"Bhagwati Mahajan\",\n  \"email\": \"bhagwati_mahajan@stehr.net\",\n  \"gender\": \"female\",\n  \"status\": \"inactive\"\n}\n \n"},{"result":{"nanos":4479600,"millis":4.4796,"status":"passed"},"step":{"line":44,"prefix":"*","index":5,"text":"def result = response"}},{"result":{"nanos":1046300,"millis":1.0463,"status":"passed"},"step":{"line":45,"prefix":"*","index":6,"text":"print result"},"stepLog":"10:28:46.381 [print] {\n  \"id\": 2241,\n  \"name\": \"Bhagwati Mahajan\",\n  \"email\": \"bhagwati_mahajan@stehr.net\",\n  \"gender\": \"female\",\n  \"status\": \"inactive\"\n}\n \n"},{"result":{"nanos":803900,"millis":0.8039,"status":"passed"},"step":{"line":46,"prefix":"*","index":7,"text":"def actName = result.gender"}}],"executorName":"main","line":38,"name":"GET API- GoRest Feature","description":"","durationMillis":874.812,"startTime":1654698525507,"failed":false,"refId":"[6:38]","endTime":1654698526382,"exampleIndex":-1},{"sectionIndex":6,"stepResults":[{"result":{"nanos":199800,"millis":0.1998,"status":"passed"},"step":{"line":49,"prefix":"Given","index":0,"text":"url 'https:\/\/gorest.co.in\/public\/v2\/users'"}},{"result":{"nanos":372500,"millis":0.3725,"status":"passed"},"step":{"line":50,"prefix":"And","index":1,"text":"path '21'"}},{"result":{"nanos":780871200,"millis":780.8712,"status":"passed"},"step":{"line":51,"prefix":"When","index":2,"text":"method GET"},"stepLog":"10:28:46.387 request:\n1 > GET https:\/\/gorest.co.in\/public\/v2\/users\/21\n1 > Host: gorest.co.in\n1 > Connection: Keep-Alive\n1 > User-Agent: Apache-HttpClient\/4.5.12 (Java\/18.0.1.1)\n1 > Accept-Encoding: gzip,deflate\n\n\n10:28:47.167 response time in milliseconds: 779\n1 < 404\n1 < Server: nginx\n1 < Date: Wed, 08 Jun 2022 14:28:44 GMT\n1 < Content-Type: application\/json; charset=utf-8\n1 < Transfer-Encoding: chunked\n1 < Connection: keep-alive\n1 < Vary: Accept-Encoding\n1 < Vary: Origin\n1 < X-Frame-Options: SAMEORIGIN\n1 < X-XSS-Protection: 0\n1 < X-Content-Type-Options: nosniff\n1 < X-Download-Options: noopen\n1 < X-Permitted-Cross-Domain-Policies: none\n1 < Referrer-Policy: strict-origin-when-cross-origin\n1 < Cache-Control: no-cache\n1 < X-Request-Id: 474b246c-2d11-4454-8860-6f247bcc93e4\n1 < X-Runtime: 0.002990\n1 < Strict-Transport-Security: max-age=63072000; includeSubDomains\n{\"message\":\"Resource not found\"}\n\n"},{"result":{"nanos":12500,"millis":0.0125,"status":"passed"},"step":{"line":52,"prefix":"Then","index":3,"text":"status 404"}},{"result":{"nanos":379400,"millis":0.3794,"status":"passed"},"step":{"line":53,"prefix":"*","index":4,"text":"print response"},"stepLog":"10:28:47.167 [print] {\n  \"message\": \"Resource not found\"\n}\n \n"}],"executorName":"main","line":48,"name":"GET API- GoRest Feature Part 2- Negative Test case","description":"","durationMillis":781.8354,"startTime":1654698526385,"failed":false,"refId":"[7:48]","endTime":1654698527167,"exampleIndex":-1}],"callDepth":0,"name":"Fetch API from URL","description":"","resultDate":"2022-06-08 10:28:47 AM","durationMillis":4246.6421,"passedCount":6}